-4.853755214588879596e+00,6.840975483677833147e+00,7.255727011337550714e+00
2.040638589817367343e-01,-5.164589181926241501e+00,-5.999998824873928882e+00
-5.972234105479063970e+00,-5.106599207507838578e+00,3.065445042731402836e+00
-5.938552598326108267e+00,-3.751768852608879712e+00,1.214457494906050172e+01
-5.946655220184479340e+00,5.931357991196419377e+00,-3.307203148205485110e+00
-5.945796204383774430e+00,-4.467444515145976069e+00,8.317278188545531137e+00
9.687208774260463784e+00,-3.819863577349536410e+00,-5.990509401561245006e+00
3.868012976956962667e+00,-6.665371333196343784e+00,-5.174063426749412109e+00
-5.267441881638488255e+00,4.245568974148949515e+00,1.707107103623475197e+01
-5.189704264452486449e+00,-5.422877951549009090e+00,1.401837151362217071e+01
7.752305793857561245e-01,-5.911606576133534574e+00,-5.811030638395147996e+00
-5.998088982834133276e+00,-5.330524804606292300e+00,-1.445133711513968189e+00
9.392117854461066173e+00,-3.923342884697262889e+00,-5.987346730027140573e+00
-5.711031321019275353e+00,5.787517010479286128e+00,4.419731976957806729e+00
1.185805974842264021e+01,6.573286611510151367e+00,-4.694199664095375368e+00
1.737551132561690181e+01,3.953878980984472324e+00,-5.315554958190381818e+00
-5.664435698596116175e+00,3.525935909920115741e+00,1.655351637211804317e+01
-5.568336412495948906e+00,4.969852171490128256e+00,1.247970022635166742e+01
-5.999600365362828924e+00,4.170291958390540898e+00,6.700792502645757764e+00
-5.461432064853009472e+00,5.267603593605683976e+00,1.218282475902830164e+01
-5.679700869038522448e+00,6.310578673209460199e+00,-3.049901598389856083e+00
6.673091842503806603e+00,6.860899595817155472e+00,-4.870874888043851492e+00
1.397950570514773183e+01,-2.782815502978667421e+00,-5.990453582489436712e+00
-5.734970474663854567e+00,-6.248654853450191560e+00,-2.931690568905440664e+00
-5.863986087728132901e+00,-6.023358424782144560e+00,-5.975309698495460786e+00
-5.490521471798982311e+00,3.572795869744487707e+00,1.733687949364825798e+01
1.158164157028055641e+01,3.840346074729729331e+00,-5.944462748096723814e+00
-4.597014023754587342e+00,-6.533079877589055506e+00,1.297885936423481823e+01
-5.981804660803130780e+00,5.985473812383237835e+00,-5.172846384016692944e+00
1.651836757714341175e+01,-4.067879921348259487e+00,-5.468903971666036590e+00
-5.967618883169107491e+00,5.541143431553329890e+00,-1.541487936206042964e-01
-4.609237359163959269e+00,-6.789079236942685114e+00,1.102385031727532905e+01
-4.998795893748146923e+00,-6.508080586668699929e+00,8.953068316350718092e+00
-7.439125318326439418e-02,6.552366050244567752e+00,-5.402981546604109120e+00
9.607186350287570065e+00,5.198635353763678246e+00,-5.680728583912148189e+00
-1.550148224891751969e+00,-6.018502090502106050e+00,-5.846122813522137029e+00
-5.782866861487941712e+00,-6.206082060193939931e+00,-3.516500466006981185e+00
1.706073922473914539e+00,5.155904217726519079e+00,-5.989512633051069734e+00
2.647182767771670608e+00,5.193916451853563210e+00,-5.967384414332243203e+00
-5.534851301633825216e+00,5.306634279908503338e+00,1.106678834457647120e+01
-5.972804362458888683e+00,4.373084367547433793e+00,7.775312846569758740e+00
3.519250532754164551e-01,5.163942428075272595e+00,-5.999900579636704201e+00
-2.754326073088476434e+00,5.837408596870502286e+00,-5.962335476590494565e+00
-5.734567239986114728e+00,-4.865937634845235671e+00,1.072156174215036550e+01
-5.721383835820479824e+00,5.804953735199651632e+00,4.028228327179625090e+00
1.667463861916691670e+01,-3.450352599765591499e+00,-5.670480364065317858e+00
-4.617022646923635065e+00,6.931531925803994909e+00,9.578008599175987570e+00
-5.336472044566977324e+00,-5.662591315928207081e+00,1.132814323264167733e+01
-4.877567383190470451e+00,6.684519829531538448e+00,8.791942022659997136e+00
1.220554408528864343e+01,-3.527879370642868828e+00,-5.966952613220640522e+00
2.788222243759673535e+00,6.069707061123049030e+00,-5.642925401249403450e+00
5.324710255757105770e+00,4.148726734381868120e+00,-5.993009631424124350e+00
-5.381935438273677264e+00,-5.005218774166254825e+00,1.420553955644809463e+01
-5.111585641632086841e+00,5.871286649919974288e+00,-5.999452090223689638e+00
-4.567176653343778980e+00,6.040536094678258472e+00,1.549991816649785115e+01
9.565019354045031008e+00,-4.546101590905656131e+00,-5.886353656633911413e+00
-8.500486347722524538e-01,-5.486957791459368572e+00,-5.989948335795827639e+00
-5.470032995764436912e+00,-6.494349765905535143e+00,-6.981552366061227755e-01
-5.999620631514916980e+00,5.455660353179475841e+00,-2.054762373605903303e+00
-5.999343147041474644e+00,5.057540639379291214e+00,6.121109035487690697e-01
-3.723477170829808003e+00,6.172905492662997595e+00,-5.815101643509326124e+00
1.501597476048056556e+01,2.821319381284129069e+00,-5.957654472544150259e+00
-5.991202165713618299e+00,5.259306314485086453e+00,8.192016414774749844e-01
1.608389869161955232e+01,3.910662802660698212e+00,-5.599847414881464758e+00
1.347675532161386158e+01,-6.086363242643066052e+00,-4.853192663760441228e+00
4.592368540916424990e+00,-4.797622124660386511e+00,-5.983389244328132683e+00
-5.951879031613469095e+00,4.838430683356538253e+00,5.801890777016368794e+00
-5.401339644965145403e+00,5.731554200797901899e+00,1.007237614379617341e+01
2.362971565071493973e+00,-5.131821054901078760e+00,-5.982055649185608281e+00
-5.760404575306677266e+00,-3.507389756436106065e+00,1.583798925389289103e+01
-5.923310586548889312e+00,-4.855888584300664945e+00,6.665493709495044605e+00
-5.998282822154700433e+00,-5.772241213741090782e+00,-3.866032469756047973e+00
-5.494367214812960754e+00,3.420407412663562852e+00,1.752674139191701030e+01
-5.766210447220911917e+00,3.960439067264986068e+00,1.436399382218054654e+01
-5.734034716894162997e+00,3.351789349976273868e+00,1.644373284995177187e+01
-5.839670603802637139e+00,4.430924898328330919e+00,1.118786198401522824e+01
4.601635587640533487e+00,-4.716088281976595020e+00,-5.990824565753224640e+00
1.475289494782037103e+01,6.008357972296015426e+00,-4.723033185230319120e+00
6.962290167183454059e+00,-6.205047314200597519e+00,-5.340808339699936624e+00
-5.824499280296969950e+00,-4.201591111240828624e+00,1.255162166656647571e+01
-5.998142976450351327e+00,5.388842398726446881e+00,-1.837941513174328412e+00
-5.080805832772806063e+00,4.719653589245382364e+00,1.686145089292705634e+01
-5.993305142026167154e+00,4.240499429841776191e+00,7.238291445693033843e+00
1.412769511094763430e+01,-4.156442221889251165e+00,-5.726358924874279666e+00
-5.381925469478862745e+00,5.019391288736291479e+00,1.414741762979151574e+01
5.917533607636683790e+00,4.104677650646996412e+00,-5.996543984782299219e+00
-3.387071731040673495e+00,-5.728048920252549969e+00,-5.997177577816647620e+00
1.752182026970290707e+01,3.378203976501460204e+00,-5.512414009356687572e+00
-5.592331691979151032e+00,6.133970438567394545e+00,3.072282775695871049e+00
6.510959672718349189e+00,-4.087770722598404127e+00,-5.999426808801474387e+00
-5.523076069865577864e+00,-6.408225762110058454e+00,1.250209004657026890e-01
6.634715944216545758e+00,-4.356877595777558732e+00,-5.992647214555722357e+00
8.559776755347192623e-02,-5.188579606133156830e+00,-5.999993276065553438e+00
1.560652441319252048e+01,-4.250128072088786624e+00,-5.536386464567798704e+00
1.740828105603659282e+01,-3.727452949069448351e+00,-5.405822806613419296e+00
-5.999227451845401404e+00,-5.760707942181551466e+00,-4.331842605718368766e+00
4.583314648777438549e+00,4.957612330167898484e+00,-5.962089436553776878e+00
-5.894450684627726922e+00,5.561199031391339531e+00,2.146766596000021732e+00
-5.758435709914830447e+00,-6.236669338537295104e+00,-4.097914932960097012e+00
1.266439668589649337e+01,-4.265839188822102557e+00,-5.800119829528158633e+00
-5.933387875911651399e+00,-6.050604314769756797e+00,-4.765434223722737173e+00
-5.209757946328047673e+00,-6.276374145132618487e+00,8.261503253724294282e+00
-5.982540736098096446e+00,5.903430171809071147e+00,-4.221082837306712854e+00
1.396600500050212545e+01,-3.401559093164236991e+00,-5.920355626552360917e+00
1.588991672187414572e+01,-2.700048623717729246e+00,-5.930730348537673002e+00
-4.661625681810549260e+00,5.854343295718499540e+00,-5.999226337840231515e+00
-7.462436331290089875e-01,-5.336617987702467758e+00,-5.999611326771585595e+00
7.149211481349385444e+00,-4.185887810514699936e+00,-5.996885595246590483e+00
1.686685518824648611e+01,-2.474878558507153326e+00,-5.892835244034318798e+00
-5.998104665890829246e+00,-5.836963195784576897e+00,-4.394334912089563616e+00
-5.937194001804640742e+00,4.748519714478867115e+00,6.910550212270115011e+00
-5.450754137781919972e+00,5.781719069177307269e+00,9.022761690174304405e+00
-5.538127077096614670e+00,4.071164344742333796e+00,1.609190798417998636e+01
-5.882421321384001978e+00,-3.790125742455509261e+00,1.325374326623333054e+01
1.689230711005070518e+01,4.402565531810108901e+00,-5.237141367744371223e+00
8.116359064326090333e+00,4.687146195745599542e+00,-5.910297913514890311e+00
1.694766594171460383e+01,-3.615881139982640047e+00,-5.564505114555826637e+00
-5.899933309650648106e+00,-2.917591125557947862e+00,1.580759517274926829e+01
-5.998988916812695749e+00,3.876104785704109990e+00,8.446451317251007396e+00
9.439372091781484286e+00,-3.582670910192792491e+00,-5.999999934350146447e+00
-5.067054344537941013e+00,5.869520458103361982e+00,1.285269635944141164e+01
1.724062445081389328e+01,-4.008724297964204375e+00,-5.331403975073545354e+00
-5.982415389469249334e+00,4.981324526296714517e+00,3.411305886800039211e+00
-3.217788226307249921e+00,-5.583812132187917499e+00,-5.997890740364015372e+00
-5.850558498664319096e+00,5.998963250508283274e+00,-5.996076139402219951e+00
-5.989704405893860439e+00,-4.286154876858852880e+00,7.281673822821409736e+00
-5.980673321210072224e+00,6.008224919541477860e+00,-5.494657277870402368e+00
1.254108837880006000e+01,3.846295508272242092e+00,-5.905953680055729293e+00
-5.501099916328985096e+00,-3.640390506424165729e+00,1.719227834531667298e+01
9.842357210477091556e+00,5.131790925266657588e+00,-5.692178314114902271e+00
1.350213395020654339e+01,4.257051421851833162e+00,-5.744719952447318256e+00
-5.021459356375980398e+00,6.134235405799063123e+00,-5.862982352317223089e+00
-5.453990256632315514e+00,5.907199662579525778e+00,7.957962811372351730e+00
-5.872459077832194119e+00,2.921245358503252731e+00,1.615176575285222427e+01
-4.320201916094766226e+00,5.902304232452060262e+00,-5.985298770739422736e+00
-5.944050985797479925e+00,-6.052907728335083171e+00,-5.691094535165858836e+00
-5.558984731169774207e+00,6.059996223402138504e+00,-5.939085234796514179e+00
-5.727801101347571588e+00,5.364633284074873387e+00,7.641281377434895994e+00
-5.970250219310059947e+00,-5.972869203223760692e+00,-4.614157536973954699e+00
1.234130221682733008e+01,-4.885111988119605009e+00,-5.614147951844755013e+00
-5.226186892374517612e+00,-6.138536063495251049e+00,-5.851356478072188949e+00
-5.879291782902483554e+00,5.512751439861781400e+00,3.003857931727212272e+00
-5.977544130355001428e+00,-6.017722954663265789e+00,-5.590334968535940696e+00
-5.798871965105805160e+00,5.017685504330710700e+00,8.643531641532794296e+00
1.686283976838283039e+01,3.266262319675754089e+00,-5.698703253437766847e+00
-5.699743878779273132e+00,6.244584877595189987e+00,-1.461232514635739665e+00
-5.556127953136752673e+00,-5.872232358086064252e+00,6.583928524066820387e+00
1.556744395833446504e+01,2.978414736062312773e+00,-5.905274895900384458e+00
1.666083736335118104e+01,4.277701517622818805e+00,-5.349408076486429131e+00
6.652879417114143656e-01,5.086653705836237549e+00,-5.999957896038115912e+00
-4.777915525275940212e+00,6.404206507955357175e+00,1.224232980894145051e+01
1.266112090406606683e+01,-4.472614394670316074e+00,-5.738051987709562596e+00
-5.265324702938531942e+00,-4.683139936610265508e+00,1.610294860732589228e+01
-5.835681212315542155e+00,4.442043133714311587e+00,1.120818068112930810e+01
-5.954407806219137456e+00,-4.509736810562376519e+00,7.758599402413362434e+00
2.544576561247905655e+00,4.936655083844766700e+00,-5.996899219425137595e+00
-5.772722394027320014e+00,-5.902054912946382181e+00,1.830166627606477192e+00
-5.980148288697550996e+00,-4.086504898414986542e+00,8.976221757587625305e+00
-5.863590228035529428e+00,-5.926207145702386825e+00,-7.911334191961638673e-01
-5.510307074809670524e+00,3.519605458189430713e+00,1.734106524776986546e+01
-4.750338794808953047e+00,6.005724211761506837e+00,-5.959385762018420962e+00
-5.691485359964783441e+00,-5.509476318171408593e+00,7.223492594787463972e+00
-5.129147916710731003e+00,6.758577641905657352e+00,2.939101538991848450e+00
-4.951714630740540635e+00,5.889736942605577674e+00,-5.999153693520682396e+00
7.819954030551623525e-01,-5.994931298590139512e+00,-5.769685821975334861e+00
-5.329298544682856686e+00,5.452912699475430891e+00,1.261107371081914152e+01
-5.193963323524063647e+00,6.540528199910021989e+00,5.495686167822802837e+00
-5.785172802839655404e+00,4.343559694234743418e+00,1.255001780282224466e+01
-5.508406968387494551e+00,-6.449154833794253250e+00,-5.823530012459199323e-01
-5.936103486362086734e+00,-5.309378599526161757e+00,2.972021938528346841e+00
1.284954538679350300e+01,-4.690874859181341172e+00,-5.648026327562147841e+00
-5.956278533168361200e+00,-5.766983113323240318e+00,-1.807944003733277460e+00
1.052325142992189733e+01,-3.986841287615009222e+00,-5.955788352079521175e+00
9.387228608969987675e+00,6.084245242727900127e+00,-5.250807358636767397e+00
1.339308638882212144e+01,-6.573781406286186346e+00,-4.512831520202526647e+00
1.021701981527184877e+01,6.454231223184514477e+00,-4.936999500534967389e+00
-5.997726446195607686e+00,5.502178331221998953e+00,-1.640438545151865268e+00
-5.712891403172753790e+00,5.069157330901551184e+00,9.888125787114050880e+00
-5.728680862181292355e+00,-5.377093098887775646e+00,7.532775902890494812e+00
6.314288917480592289e+00,-5.328526976761986944e+00,-5.806156163131557690e+00
-5.999294539438973395e+00,-5.991860995901771680e+00,-5.880695560821456169e+00
-5.778800476320330226e+00,3.053949918458031210e+00,1.673319271509479478e+01
-5.997604020233167077e+00,-3.822888076456298911e+00,7.554857354603778496e+00
-4.832330130877932284e+00,6.898468560246007186e+00,6.782811179464139251e+00
-5.750823414182380411e+00,-6.242081137498630916e+00,-3.564366789759768395e+00
1.698908481190933983e+01,3.037690300429991996e+00,-5.745865606093768285e+00
1.347931218178715618e+01,5.063040823594409545e+00,-5.434204124188779517e+00
-5.925292009244076397e+00,5.766786418922452917e+00,-7.711858354590328535e-01
-5.579113499948473276e+00,4.638323143640867841e+00,1.386035458134839615e+01
5.189590832853613556e+00,6.756791488240915911e+00,-5.036905189233094937e+00
-5.694087765113978072e+00,-6.262164222533907143e+00,-1.720036098681620995e+00
-5.773382639196126043e+00,6.222016214695907266e+00,-4.260728945955352565e+00
-3.357498523539458990e+00,6.363496948434621991e+00,-5.623585107407953920e+00
-5.544160785681349068e+00,6.022644134688508899e+00,-5.972974575878168935e+00
-5.863499407034431066e+00,2.604830646978939068e+00,1.690368924622834257e+01
-1.124474427520428588e+00,5.976085188254023350e+00,-5.852228137242859063e+00
1.183677182344547951e+01,5.316289932658299300e+00,-5.468328104508504595e+00
-5.758129425856640005e+00,6.117286840482298871e+00,-6.779108942082604505e-01
-5.977975078412153032e+00,-3.147558256561354462e+00,1.328290149228962314e+01
-5.455109306913182188e+00,3.461099266655333295e+00,1.759348050313836254e+01
-5.532213034972714993e+00,-6.446437477960964557e+00,-2.971296685527916370e+00
-5.759944897194307245e+00,-5.968338142053750239e+00,-5.999981576304022290e+00
1.694787843154228568e+01,-4.211370728838555344e+00,-5.315184953017181080e+00
-5.664526668406847598e+00,6.134133117847353489e+00,1.436731634643791500e+00
-5.768424225284477735e+00,6.202714125327223549e+00,-2.751889703836815304e+00
-5.817097594610025624e+00,-5.674972882032857768e+00,3.120462580620837478e+00
1.672168355822735109e+01,4.568589469447113416e+00,-5.195159430814663359e+00
1.982035343396232996e+00,-6.407657756357900247e+00,-5.456787854596803378e+00
-5.996993209328442376e+00,5.324063767911456857e+00,-1.522357571987638325e+00
-1.109405658625732150e+00,-6.313824597576675579e+00,-5.635985397329275060e+00
-5.849528595195225833e+00,3.500076134718650867e+00,1.483473856763160370e+01
-4.941324950981915265e+00,-5.301148478463524327e+00,1.603444838878876055e+01
-1.167794735829257524e+00,6.383774366942845724e+00,-5.579673660061813756e+00
3.843256300093812250e+00,4.475381454326944564e+00,-5.996830539988386555e+00
1.481043552062402746e+01,-2.628246650009580243e+00,-5.983333900805727801e+00
6.595426924134771163e+00,6.835078997582753502e+00,-4.897236060392567758e+00
5.487333510518919155e+00,-5.427274066759606441e+00,-5.808540120061200795e+00
-5.999786260463985776e+00,-4.291413164826736626e+00,5.508640896261978170e+00
-2.460206034043400436e+00,-5.882928890277429268e+00,-5.938422088651626574e+00
-4.813920616874989289e-01,5.950384467119740783e+00,-5.840937258783789332e+00
-5.973941079007427213e+00,-2.959975857777865649e+00,1.410062446487426868e+01
1.602721722542782246e+01,3.013401659015976453e+00,-5.864010473056609385e+00
8.126635786844229159e+00,6.800528900633472595e+00,-4.831629779625377985e+00
1.681282460760012398e+01,3.619713633022509036e+00,-5.588924401985108759e+00
1.546076726632980858e+01,2.819440459948035826e+00,-5.937246727854031292e+00
-5.999854977276547707e+00,4.316953603935275829e+00,5.753456812743209525e+00
-5.922118804883485410e+00,-4.603726072319577867e+00,8.276357748262073599e+00
-3.463316436166451240e+00,5.851098958437169095e+00,-5.977365373743913857e+00
-4.970632230255323414e+00,5.453140165768981085e+00,1.539645179578220535e+01
-5.833842919596432530e-01,-6.498751949996651511e+00,-5.463607364786281728e+00
-5.746232158893969100e+00,-5.465199858309412129e+00,6.514847549873606702e+00
-5.991732613734804147e+00,6.007567843348420311e+00,-5.879796092554287590e+00
-5.529004384805515038e+00,6.256081870088952002e+00,2.780608952770222242e+00
2.551637921084300320e+00,5.041965834920708822e+00,-5.989071965619531035e+00
1.665673680718463956e+01,3.730536946383145924e+00,-5.576335451600513693e+00
-5.112607940126200567e+00,-5.149036841149693622e+00,1.558872741801379647e+01
-2.290227005929788007e+00,6.150731994390178592e+00,-5.792648442665700337e+00
1.415318328523010827e+01,4.987469017541662275e+00,-5.396437913422361454e+00
-5.130319973672949452e+00,6.222289233801169495e+00,9.807171739004628463e+00
9.737751006865261516e+00,-6.001715153011196513e+00,-5.274111187397523715e+00
-5.887670754061603340e+00,4.353371091529967707e+00,1.057227564318216295e+01
1.539277306706382653e+01,3.430440596486925564e+00,-5.822819104660482914e+00
1.333314334943730728e+01,5.168656944664098418e+00,-5.399161106454553938e+00
8.945692055252571606e+00,-4.522425857607801802e+00,-5.915342929893629531e+00
5.715323169464606501e+00,4.703626503927278435e+00,-5.974081994746051727e+00
-5.852769024502252115e+00,-3.878154342654166697e+00,1.343208631157497912e+01
8.684199738709624583e+00,-4.049480069523335501e+00,-5.988195301160716078e+00
-5.916884505855195542e+00,4.258646182210453546e+00,1.033589590675262393e+01
-5.984007385277812396e+00,-2.842131228277784416e+00,1.410322350184297768e+01
5.690488364855230685e+00,-4.887788642943339035e+00,-5.946052086173629903e+00
-5.631814754844919335e+00,3.896425295236975117e+00,1.588492405014650366e+01
-5.189686243980838221e+00,5.762626518228491257e+00,1.229846177595926093e+01
-5.527548552811945903e+00,-5.441030656166204516e+00,1.033341185809731932e+01
-3.249508914200984755e+00,-6.421245634638710342e+00,-5.557021559837685309e+00
1.031680276697919219e+01,4.537600232687057478e+00,-5.855145359301332952e+00
-2.433960941626942986e+00,-6.189060315904616694e+00,-5.769933083905104176e+00
1.188052716754373606e+01,3.180122988823441688e+00,-5.997746666802080462e+00
-5.916062249753902158e+00,5.011498446510439742e+00,5.836784732438634826e+00
1.085307839193669466e+01,-6.459950652939098426e+00,-4.876660713469815001e+00
1.734349905333986541e+01,3.190965711289037721e+00,-5.629280100090543471e+00
6.025654063909982483e+00,-6.159976836106330289e+00,-5.424534361027684604e+00
-5.907338102701445770e+00,-6.090398320184569947e+00,-5.375489269044517293e+00
1.084286576720284678e+01,5.273048744232414542e+00,-5.566651381270046883e+00
-3.760217898421795546e+00,5.745674251057506510e+00,-5.999156285446159309e+00
9.044052573302531428e+00,6.671342986148642851e+00,-4.869125138440682399e+00
5.326495181329828910e+00,-6.107900182612365114e+00,-5.494869356131733440e+00
-5.966761684016785416e+00,-5.961630077335690281e+00,-4.348995774132907499e+00
-5.147813610623580338e+00,-5.850615234073554660e+00,1.219885383170007742e+01
-5.537181569470764231e+00,-3.996173999709855984e+00,1.628703559418789837e+01
1.736467152005211068e-01,-5.753645574285997100e+00,-5.898547440881987569e+00
-5.999725954155781693e+00,4.356624925178964602e+00,5.590750679257300071e+00
7.379238940478371589e+00,-4.947824703208799413e+00,-5.875805281824539428e+00
-5.063107092052685054e+00,-4.480960550528169328e+00,1.734238023893037095e+01
-5.224599395873586793e+00,-6.151847034803241243e+00,9.174413850063031006e+00
-5.956436806913210091e+00,5.940872984933712964e+00,-3.742684817450293799e+00
-4.754843895308175306e+00,6.932138987874576941e+00,7.600756908940392798e+00
1.629085786888202847e+01,3.687655230952842533e+00,-5.648871850987617904e+00
-5.896025766849285255e+00,5.170930444684601390e+00,5.279207565152673531e+00
1.015417733041718584e+01,4.059698585969085727e+00,-5.956003388049513347e+00
1.340970617398881259e+01,-6.163787852762948383e+00,-4.809202512853794964e+00
-4.955668520423730072e+00,-5.853345298286479093e+00,-5.999636292143455840e+00
2.778866288896373327e+00,-5.592171195693965480e+00,-5.861248372032544118e+00
-4.779108124011533398e+00,-6.046989114674561350e+00,-5.936168796276426463e+00
-5.228380667048516450e+00,-6.035459821308616135e+00,1.005915325349671896e+01
2.884151892454284383e+00,6.318733541816552446e+00,-5.482149197134485341e+00
2.424117685085903862e+00,-5.993113094859732648e+00,-5.701319785515133631e+00
8.596060715072948000e+00,5.088554654509263919e+00,-5.777961408817342992e+00
1.678374452195859234e+00,-5.268267296698657454e+00,-5.975877340511673630e+00
-5.873653505026110722e+00,-5.992046903217218556e+00,-1.944181551752564019e+00
-5.289431988139163821e+00,4.643662603053397397e+00,1.607678050766726230e+01
-5.971988463046724149e+00,-5.967660227957408914e+00,-4.602184973959563941e+00
-4.938196903607340538e+00,-5.180465517476450010e+00,1.637888556089281167e+01
2.081383196951872794e+00,5.427733129615448071e+00,-5.933948044029770941e+00
-5.927186778729077510e+00,-3.541004703543343624e+00,1.329705236643514255e+01
-5.739673959900978950e+00,-6.043237660227410046e+00,8.863478380007241419e-01
-5.999960290388212769e+00,4.225932950249689846e+00,6.001872496588218198e+00
-5.449677337676420485e+00,-4.492597031041353439e+00,1.550428056522466314e+01
-5.678934084894055268e+00,-4.490335355499677661e+00,1.336003569728332252e+01
-5.357170033573541268e+00,5.951143262714477800e+00,-5.997096761974942680e+00
1.542319611581886818e+01,3.096591426170660188e+00,-5.893105399136810973e+00
1.567980271390663738e+01,-5.514188255322389765e+00,-4.881879639632878742e+00
9.600664142880400931e+00,6.604394469396294376e+00,-4.877227887254741212e+00
-3.356533607373904715e+00,5.685344291898767999e+00,-5.999563848561378698e+00
-5.340787810092262333e+00,-4.312752639275802657e+00,1.662498132507066373e+01
-5.995498584102890050e+00,-4.500658227238058195e+00,5.498215721357888164e+00
-5.011063904744937680e+00,-4.685208317381445831e+00,1.716564058579643515e+01
-5.974957774763283602e+00,5.410648596537012800e+00,6.033152351554873505e-01
1.162863342091950969e+01,-3.266509964360778895e+00,-5.996902349260712306e+00
-5.316759686896067372e+00,-6.346674888866508546e+00,5.792723557336342033e+00
-3.844141352011872570e+00,-5.749749684615526490e+00,-5.999458032033314403e+00
-5.996978169752510190e+00,5.974195004101178874e+00,-5.586181637033104330e+00
1.514878751134084389e+01,5.692525806532369614e+00,-4.865355282524872926e+00
-4.583046620674878113e+00,-6.286039050796292216e+00,1.440196673105258540e+01
-4.944002632374759010e+00,6.484631978446966372e+00,9.871001345257882420e+00
-4.250337802778917151e+00,6.154516960008085569e+00,-5.840153542055058544e+00
-5.691050550907501560e+00,-5.554898110439551395e+00,6.871578772975575511e+00
-5.680071418321001708e+00,6.205290348802751765e+00,-8.477164068649595263e-02
-5.676052457620111014e+00,6.260535712889473636e+00,-1.083422532306697050e+00
-5.298902101690486255e+00,-5.090261614411828894e+00,1.454187354122904807e+01
-4.813981612993165626e+00,6.061487669240587906e+00,-5.927115874685216390e+00
-5.773869753319875286e+00,5.772736511498521850e+00,3.184638915940913417e+00
-9.211866821820910989e-01,5.300343906578953046e+00,-5.999743252856858611e+00
-5.680769019804969844e+00,-5.102779488910317518e+00,1.020301936771409324e+01
-5.656280019019810368e+00,-5.807786361529513108e+00,5.333920338711647169e+00
-4.829491227086393224e+00,6.767207818519322515e+00,8.549342803077337294e+00
1.647598191772466336e+01,4.714633492181754981e+00,-5.175366210913949772e+00
-5.296989295861556535e+00,4.404424714796808082e+00,1.662870863662489285e+01
1.165442638753422910e+00,-5.097256403346551501e+00,-5.998704106077267895e+00
-5.467738680937828111e-01,6.409227906483631720e+00,-5.541969413689494139e+00
-5.999870162943095053e+00,-4.991382994071473789e+00,1.237281640793391313e+00
-5.057939554229466061e+00,-6.019581073320106057e+00,-5.961267202048796676e+00
8.946991344888191477e+00,6.588885322962516611e+00,-4.939381847458185426e+00
9.610502934733398561e+00,4.439790192652774081e+00,-5.907923743856058785e+00
-5.236360781613616844e+00,-4.779698731917949139e+00,1.599624956269847864e+01
-5.990975857191929599e+00,-5.321234217533491240e+00,3.706639510747639088e-01
-1.742996343763742573e+00,-5.440614767741792868e+00,-5.999999288507170014e+00
-2.509610044438769449e+00,-6.148433184407647190e+00,-5.801107297703899768e+00
-5.112481410913690461e+00,6.368817346994798179e+00,8.751680243280917537e+00
-5.993493931622902338e+00,5.848232048709866682e+00,-4.174296663178856726e+00
1.509570139432322833e+01,5.776884925999700826e+00,-4.820213687278470438e+00
5.218364874777546625e+00,-5.779522433918957702e+00,-5.675684919358178426e+00
-1.832543540189243814e+00,-6.293855602470284971e+00,-5.671885393133885955e+00
-5.965109643635762460e+00,4.145233243277975710e+00,9.366283685598428832e+00
1.583355967658500596e+01,5.936002037343294013e+00,-4.572030635760613748e+00
-5.605657394155895368e+00,-6.380870206344465778e+00,-3.182631744650493921e+00
6.264213005116402222e+00,-6.851517838690127427e+00,-4.901373546963798233e+00
-5.167302462196288637e+00,6.131335223563310954e+00,1.007598380363440249e+01
1.386881062558494371e+01,5.050167324130717894e+00,-5.398761737137354189e+00
-5.411756564623627419e+00,5.866439059844885229e+00,8.923797870462689019e+00
4.736111322402696722e+00,5.877814700518301017e+00,-5.651945095048844792e+00
-5.851456772718647947e+00,-5.002248186334200319e+00,7.607947591705617185e+00
1.369175092343230737e+01,4.527178215903617797e+00,-5.637309780852275409e+00
-5.378764416083601674e+00,-6.137303062625019123e+00,7.031663703067582816e+00
-5.767114430797954938e+00,3.159804371873620621e+00,1.660609891814819861e+01
5.956774930604727736e+00,5.222191476118931419e+00,-5.855830753225344409e+00
7.373072608884498003e+00,-6.638362811127918484e+00,-5.009929445903978262e+00
7.404693448167751768e+00,4.310319703151224147e+00,-5.986001553443118794e+00
1.511439334472106566e+01,-5.009661185674162631e+00,-5.261580943327076376e+00
8.868866387418409047e+00,-6.658523655927204743e+00,-4.892093634803034163e+00
-5.725114482493792956e+00,-6.260193150632896497e+00,-4.416769276967522195e+00
-4.898520033654038208e+00,-6.405710874186840265e+00,1.103718913265483970e+01
-5.009082438276263538e+00,-6.045545757281932886e+00,1.236845656755722089e+01
-5.413809192530152359e+00,-5.629513781731113831e+00,1.060511419864512739e+01
-5.615517427779066040e+00,-5.122788374521300092e+00,1.105166047842204158e+01
5.869040408645709306e-01,-6.002821031279736097e+00,-5.773410792151087101e+00
1.286180235473431033e+01,3.037620420169351299e+00,-5.993540366917943452e+00
-5.846729824877770376e+00,-6.146184240822974765e+00,-4.204400490719778283e+00
2.201899676199196687e+00,5.224554028172659237e+00,-5.971998968042313116e+00
8.301708494981033581e+00,-6.566961506484334521e+00,-5.002364053083959483e+00
9.270129940072488139e+00,5.816514346309587857e+00,-5.414672755576114049e+00
-5.861366428574131149e+00,-2.495385381695672589e+00,1.710860248071056944e+01
1.738674062546656174e+01,4.114483896733572621e+00,-5.235746897134542444e+00
-5.669087847905844413e+00,-6.108179123127549737e+00,1.693105239249807603e+00
8.911750258583465367e+00,6.084743508584855576e+00,-5.285605142707606952e+00
-5.999994723901371785e+00,5.965794347212271198e+00,-5.719888016842363143e+00
-4.781718436599707189e+00,-6.678209030255716883e+00,1.007493971946273170e+01
-5.982705127402144107e+00,4.494894099690257327e+00,6.533829076282166248e+00
-4.965125850936680685e+00,-4.808666021722459050e+00,1.709074106381969571e+01
-5.621103348575245739e+00,3.859794681406937045e+00,1.606228193950013505e+01
1.486074484273521357e+01,-5.031546657464795125e+00,-5.286221292697411478e+00
-5.843934393528869009e+00,5.033273930893501280e+00,7.574523853249452543e+00
-5.996398704848771466e+00,4.529756042601109201e+00,3.469405592107430714e+00
-5.630518531618735167e+00,5.582494488126699572e+00,7.740474714495026554e+00
-5.955915981181059138e+00,-6.030459979703587159e+00,-5.101198377910015402e+00
4.308676301858470836e+00,6.551345245511186910e+00,-5.245727220198724616e+00
-5.098236032008865770e+00,5.944119649414512985e+00,-5.993194519861988034e+00
-5.997311901130553125e+00,5.998122834231341294e+00,-5.880095383093388861e+00
-4.159232791206756374e+00,-5.874246692171648299e+00,-5.988240639516534181e+00
2.766021183831145702e+00,-5.527908680714681111e+00,-5.883076975035495870e+00
2.410393216578965436e+00,-6.025927977250888468e+00,-5.684302465794976555e+00
1.281778985180685915e+01,4.122902399530995687e+00,-5.829152144070155472e+00
-5.130273420437261755e+00,-4.596442661338743463e+00,1.692325960786522288e+01
9.670964821921042898e+00,5.860511349820666460e+00,-5.361042851287507460e+00
1.231724240543414783e+00,-4.850318963542693318e+00,-5.993371474360555951e+00
-5.489785455354343924e+00,5.330078363414968656e+00,1.150073990976831517e+01
1.061762856804394239e+01,-4.976496210923612828e+00,-5.701804401006338452e+00
-5.999693615380161660e+00,-5.221469665830502649e+00,4.801264710845853934e-02
-5.933174340395426682e+00,6.052573056588713030e+00,-4.806565824876527060e+00
-6.824751934076841442e-01,-5.640175178624342145e+00,-5.958816470710031510e+00
1.097436209349124958e+01,4.264316460347045812e+00,-5.889862810887061428e+00
-5.769764974479905995e+00,2.699744843203529587e+00,1.738008610361915274e+01
1.570681588321515143e+01,4.757319779859967568e+00,-5.296888453899029514e+00
-5.829867258346342673e+00,5.872948277354677060e+00,7.438392118454939528e-01
1.573604551558809295e+00,-5.924401268962335543e+00,-5.772653632840815341e+00
1.494053137759923366e+01,4.889028250221256755e+00,-5.345683210280117059e+00
1.212076325585307757e+00,-4.865424997240707761e+00,-5.994294807028310856e+00
5.563115101679970032e+00,-4.876551582859860012e+00,-5.951485661149079398e+00
-5.997241615369966361e+00,-2.920463149132551006e+00,1.296164589707874804e+01
-5.893216363208005681e+00,6.071798845672303102e+00,-3.855120791359546661e+00
9.110633607254237987e+00,4.874449756035793335e+00,-5.820096720397953227e+00
1.749741175436853879e+01,3.204663617828669597e+00,-5.584324231893547541e+00
1.349248938939426523e+01,-4.464356946378378765e+00,-5.677079811814992993e+00
5.766297489543861232e+00,-4.898834088353095417e+00,-5.941870075476644253e+00
-5.123954374056009620e+00,5.949684065598050076e+00,-5.992414565171753082e+00
-5.270749091460310787e+00,-6.249416118965982037e+00,7.617355803259806990e+00
-4.514382314624647563e+00,6.433338057078623606e+00,1.413850887172678483e+01
1.349505437134267183e+01,5.951784951815711544e+00,-4.939389750342248142e+00
-4.870002684450521535e+00,-6.112619150631823928e+00,1.320082638482210768e+01
-5.792072249713635657e+00,-4.294196897140213132e+00,1.266457620542751883e+01
-1.303348761804548284e+00,-6.036751518528316041e+00,-5.827464579191533822e+00
1.328522111365057334e+01,3.676078676597635209e+00,-5.903703771106283860e+00
7.966565627359446289e+00,-4.689512682841714408e+00,-5.915050716876910641e+00
8.774613092792938218e+00,-4.529090357377903331e+00,-5.920009878177541651e+00
-4.462157119434433383e+00,-6.519863456179645134e+00,1.404795612966463558e+01
-4.976434604963334785e+00,5.905917170846756825e+00,1.343275662092647060e+01
-5.706569567393069420e+00,-3.738624798903749991e+00,1.569982463831664354e+01
4.124497070884744154e+00,-6.433220374876393421e+00,-5.343281200460164193e+00
-5.272680655014410966e+00,6.075815140417419435e+00,-5.923555542617693348e+00
1.208157664236838080e+01,-3.831671007743996160e+00,-5.927853665194329658e+00
-4.776822810580357626e+00,-6.097456895208034133e+00,-5.898108045979582492e+00
-5.928640912467031399e+00,5.725302065709766630e+00,-4.543656125338679796e-01
-5.738159215311897654e+00,6.186471549312449802e+00,-1.367880484857575851e+00
1.187351251372223793e+01,6.629630259153528549e+00,-4.649574712994972714e+00
-5.197123456177025425e+00,-6.716794494204545884e+00,2.010053139071441564e+00
-5.800926280166566862e+00,-5.935108489458320591e+00,7.487795793105378461e-01
-5.998227901476543167e+00,-5.573915539982870371e+00,-2.262726930252531687e+00
-5.947831758934743362e+00,-5.961293526148196520e+00,-3.732759162458045843e+00
-5.996319246706593553e+00,5.984827525172252471e+00,-5.676256192185879179e+00
-5.702096214981554390e+00,-4.576912861126681165e+00,1.267830685025298543e+01
-4.896219092565541331e+00,5.924556492532486729e+00,1.396096770027601330e+01
1.615474253296906326e+01,3.248305808918327653e+00,-5.796709527123964811e+00
-5.481054322283861246e+00,6.377303914560093823e+00,1.938400787084957777e+00
3.646126694641079524e+00,-6.583345018566849838e+00,-5.250800369466368522e+00
-5.851098664309208885e+00,-5.340688101749894834e+00,5.168748081943145500e+00
1.335841809303135186e+01,-5.068634577239929051e+00,-5.443912364765458811e+00
1.417142265857521188e+01,6.245957805046380429e+00,-4.647048019014408560e+00
4.735326315172923017e+00,5.958629411232054807e+00,-5.610110694745538140e+00
-5.909174546305131059e+00,-3.569937858490296101e+00,1.358086120658795082e+01
-5.782490469391729171e+00,3.989324893715654685e+00,1.404996103595814994e+01
7.374027194451471701e+00,-5.080563526980689915e+00,-5.838677181671282135e+00
5.484537958319363860e+00,4.814544754359876499e+00,-5.963583416162627771e+00
9.727686135310870341e+00,-6.504392754457918535e+00,-4.941311693482522749e+00
-4.942027224695140220e+00,-6.683440738675317405e+00,7.878946041088793706e+00
1.548342629113971824e+01,5.678634240329536453e+00,-4.814920912531251318e+00
-4.075015468494246562e+00,-5.714130261635840924e+00,-5.998519365819604765e+00
-8.630352356161163918e-02,6.050535772586147942e+00,-5.774292012154876197e+00
-3.108091358822441030e+00,6.394175885577110030e+00,-5.591290415165903305e+00
-5.959141019332803602e+00,4.975384834120405664e+00,4.583867176904130147e+00
-5.766963659705455214e+00,5.178965741873809314e+00,8.205154232442534834e+00
-6.919784728192027723e-01,-5.503215543008881383e+00,-5.985264726330790985e+00
1.428376890790392828e+01,3.101617690955436046e+00,-5.951616346504192023e+00
1.078039058464515421e+01,-6.665022215524906812e+00,-4.729867204333144670e+00
1.543771029909608217e+01,-5.455385780090545644e+00,-4.962088823058649290e+00
-4.935673449393236822e+00,-5.829091872293910015e+00,1.411973080600687780e+01
-5.363016840335197877e+00,4.070971346792776835e+00,1.701492498574518919e+01
-5.421058704676663176e+00,-4.680485638266257631e+00,1.510405343492793762e+01
4.136281503780989688e+00,-6.134995445757586374e+00,-5.540482034188674909e+00
3.602946420607366473e+00,5.425213906234818140e+00,-5.884669399310243243e+00
9.870273169964779214e+00,-6.404523189730113586e+00,-5.001295639865749543e+00
1.522461813636835970e+01,-3.091533306414655069e+00,-5.906748062085505069e+00
5.963682183822075267e+00,-4.516872432114509728e+00,-5.989265947614397234e+00
-5.828451663661671667e+00,-5.061546871916133838e+00,7.732419689370805926e+00
1.069285921555126073e+01,6.795022052013006686e+00,-4.635185576219684300e+00
-5.866323387069324546e+00,4.360749416603503015e+00,1.100605102730838780e+01
-5.772421602911198768e+00,-4.449400504167156711e+00,1.225918928470458447e+01
-5.909757595337368663e+00,6.077620881061794655e+00,-4.588829272817323890e+00
2.407000804253586868e+00,5.729997041682351799e+00,-5.824324027048185748e+00
-5.552770341003625987e+00,-5.593955575427100868e+00,8.915514370587741766e+00
-5.995291476670204567e+00,-5.988710477644086261e+00,-5.683951932299944332e+00
7.284009200564128150e+00,4.743164228605643018e+00,-5.926705002830515490e+00
9.206570549937469039e+00,4.072405554358301316e+00,-5.977127951559529251e+00
-4.705197347245260175e-01,-5.684552749240605607e+00,-5.941278485652342845e+00
5.362943525299916914e+00,-5.974345620297105697e+00,-5.568970039440586106e+00
1.388613465924231605e+01,6.529718065637946545e+00,-4.478362736435284930e+00
9.502276639080607268e+00,-4.619704072026804553e+00,-5.871378640059237597e+00
-5.773222563482487857e+00,-3.305282974627932191e+00,1.623089052826697554e+01
1.668612726649943667e+01,4.437504763035979849e+00,-5.268526072220908851e+00
-5.451350584459104809e+00,4.344113225595086725e+00,1.592793920600670887e+01
7.735250169874062109e+00,6.982277268852989494e+00,-4.702729214280731540e+00
6.159346079623714942e+00,4.185736752048712539e+00,-5.999880152736209560e+00
-5.431747645904565047e+00,-6.465768014167447397e+00,1.461477539748323062e+00
-2.981968787452605962e+00,-5.861256545626762460e+00,-5.961491404996595911e+00
8.884555141937861222e+00,6.349534100490236810e+00,-5.115995312451196320e+00
1.450240666738833717e+01,4.698523743821791498e+00,-5.486868032733587697e+00
-5.380684841889076253e+00,-6.465667898955241633e+00,2.766483075283429738e+00
-5.956383776422145004e+00,-4.454949150093950649e+00,8.003379030207479872e+00
9.146133023048330202e+00,6.897650052842647206e+00,-4.678745126704486168e+00
-5.999883167868941491e+00,3.581271673676793998e+00,9.297548334967215666e+00
-5.850189034261319421e+00,4.231316427526091495e+00,1.195760728325815414e+01
-5.792056426501789979e+00,-2.652013162789791156e+00,1.732726312790178369e+01
-5.469475629894029467e+00,6.416046382310450547e+00,1.492744163451493744e+00
3.833896224249168316e+00,6.347781585105562563e+00,-5.417947689252153864e+00
6.939148332880439973e+00,-4.811589470222240372e+00,-5.923778312519639933e+00
4.214627655675019291e+00,-6.695604512467250302e+00,-5.133634178700170914e+00
-5.992384787943222157e+00,-4.811655958804763600e+00,1.396932087886326057e+00
-4.713477495130415029e+00,-6.128403465676910855e+00,1.428252394949682724e+01
-5.949582422636741974e+00,-5.965146176374755527e+00,-3.840323439557860041e+00
-5.990708155242536748e+00,5.228799933122807886e+00,1.083309545463569723e+00
-4.925478372123102133e+00,-4.855275481575799468e+00,1.713041912373241260e+01
1.437174872218943378e+01,4.484927744498224733e+00,-5.588260104945490525e+00
1.023193528994741719e+01,4.029520595418619955e+00,-5.958036327199003779e+00
-5.907712614783397598e+00,-4.130218038782121681e+00,1.121112478182910444e+01
-5.995895055456551326e+00,-5.325587710491844540e+00,-1.631191623850174466e+00
1.568536923282817774e+01,5.263063523193797444e+00,-5.031146794264263811e+00
-5.989702852510767173e+00,4.177369607172657595e+00,7.888155010574624981e+00
-5.460264889043653369e+00,-5.357884006802890120e+00,1.169755583141605015e+01
2.400061594043026769e+00,4.783125568579264630e+00,-5.999379268499060558e+00
-6.582507677236437704e-01,5.851507397931473342e+00,-5.890627977942238580e+00
-5.967172557904252272e+00,-2.856167871768663158e+00,1.465454998162740985e+01
-5.998258578372155370e+00,-4.060907214218568484e+00,7.621823280450239935e+00
-2.581440641536314473e+00,5.973835941384076698e+00,-5.904454793412127422e+00
-5.448596044165692653e+00,-4.105247404217211127e+00,1.654359208720897456e+01
-5.849371768569880281e+00,3.331649136314435378e+00,1.535232012068356333e+01
5.518089023264727722e+00,6.912392594121829603e+00,-4.885577356394162685e+00
-5.904597200720840711e+00,5.754236599020040366e+00,-1.018761003716700531e-02
1.524236311770062891e+01,-4.209658978338254975e+00,-5.597528885072158289e+00
-5.973981595705133429e+00,5.057631888138453213e+00,3.332123031176851935e+00
-5.982796360713394712e+00,-4.246099578519443973e+00,7.964326156337853568e+00
7.066626550406812868e+00,4.724386871751562467e+00,-5.937088361839721884e+00
-5.009803457080296063e+00,5.803630701323507779e+00,1.367852911535690197e+01
-5.627687797902545697e+00,-4.806697428114101278e+00,1.255596119445473136e+01
-1.930427904320051402e+00,6.319597240418896256e+00,-5.652721547706347494e+00
-5.965234961076849807e+00,5.917557686576895293e+00,-3.751249437690308497e+00
1.370096445326290180e+01,3.833991707112893721e+00,-5.846862027448587185e+00
-1.023700092542179085e+00,5.845874919477267007e+00,-5.905416466739676906e+00
1.635930289831950901e+01,3.012268340875562611e+00,-5.833070559379891051e+00
1.355704092878089995e+01,-2.954313453392125588e+00,-5.987323154541455139e+00
-5.988447384502971538e+00,-6.008864885991948235e+00,-5.781400483643433397e+00
7.243601039343030124e+00,4.055779756343681264e+00,-5.999795749749104345e+00
-5.325561997446657259e+00,-6.111114660505335472e+00,8.106766099113512425e+00
-5.938274252778325213e+00,3.138654642991766774e+00,1.447826287994515937e+01
-5.965912764497789844e+00,-3.155210952989323747e+00,1.369021467662624758e+01
-5.884320713733287356e+00,6.114488493859529861e+00,-4.942854959373655710e+00
-5.969534515467440627e+00,-2.461723312617549286e+00,1.571109285550561374e+01
4.969620647792566182e+00,-5.006466778664498740e+00,-5.943463140024736191e+00
1.452207207440508085e+01,-2.927777472851157636e+00,-5.963911148601398260e+00
1.606983512843616069e+01,2.917114478260076638e+00,-5.880140019810190743e+00
-5.250782741184911728e+00,-6.231457393431234948e+00,8.091959002161422276e+00
-5.985843630806187754e+00,4.309387260826484045e+00,7.420303522350943481e+00
1.093391109063321132e+01,-5.916770883767135558e+00,-5.226703866288636924e+00
1.455553497674416663e-01,5.021110568909018745e+00,-5.993205463689593948e+00
-5.660745285023001117e+00,5.190968974868261476e+00,9.974584945820643256e+00
8.856412247958123984e+00,4.845086928955915972e+00,-5.840648781195935335e+00
-5.996357134001340405e+00,3.980832900806089203e+00,6.564740960348816046e+00
1.403537235435182673e+01,-3.538541238952466195e+00,-5.891573508957537619e+00
1.638798539818980515e+01,-4.931146298553431784e+00,-5.078649218743181315e+00
-5.756775807104486553e+00,-4.182396748880124804e+00,1.364466607195685555e+01
1.403087347508861704e+01,-5.782685170908156813e+00,-4.976898169928786864e+00
1.004724356650408446e+01,6.464521613783985821e+00,-4.943928382176955516e+00
-5.569879586804660221e+00,5.516829962060629811e+00,9.209434546851422709e+00
9.682067645444119464e+00,4.229594128071466841e+00,-5.944223680412834554e+00
1.520825637028003463e+01,-3.908249821181644101e+00,-5.705467233411474659e+00
-5.979280019709849014e+00,3.205023655481204603e+00,1.301141764573148940e+01
8.183190156250372382e+00,-6.655747432507972405e+00,-4.943055339258134673e+00
-5.738968656354564324e+00,5.360069669318462182e+00,7.461835732449574543e+00
1.317459124958908667e+01,4.805891541408787937e+00,-5.575635605545254059e+00
4.019272511269003978e+00,-6.703069199046581161e+00,-5.135856081141003671e+00
-5.414686956057598088e+00,3.764667513948753097e+00,1.732560065369489521e+01
-5.827390690045347377e+00,4.141945449392046896e+00,1.276493596373496686e+01
1.465199055332878331e+01,-5.970931663164416037e+00,-4.764551893100843927e+00
-4.641900178689616574e+00,6.579120611332458068e+00,1.229970579705580924e+01
-5.008099665989852234e+00,-6.057615280548783510e+00,1.230444817378632649e+01
6.778559525391363749e+00,5.887705479846284895e+00,-5.536742257791721578e+00
-3.544462879425728907e+00,-6.208526590607828410e+00,-5.781217098681779021e+00
1.471581412107452991e+01,4.539833534906724033e+00,-5.529218919176981828e+00
9.252274183397158680e+00,-6.782088010757785668e+00,-4.765755027684146050e+00
-3.769584900165852126e+00,5.788804591025834334e+00,-5.995524106855806501e+00
1.745942810425367497e+01,2.724580570770749333e+00,-5.746529986640729781e+00
1.420970219281942626e+01,4.327520132322702828e+00,-5.662085569792417061e+00
-5.594101639927487213e+00,6.365207868367911637e+00,-1.112313959222301474e+00
-5.861916046512644307e+00,3.774311888820952809e+00,1.368114446514669424e+01
1.389820738796380439e+01,4.792614099516701032e+00,-5.511831096000977759e+00
-5.997200865875146114e+00,5.905550741786599112e+00,-4.931124757531264891e+00
1.546055442754293274e+01,-4.091655542717914429e+00,-5.615055797227475054e+00
-5.999421109889189196e+00,-3.383323164901938185e+00,1.069758398550853151e+01
-5.802098345466299101e+00,-5.278937491241880942e+00,6.774881337729957487e+00
-4.050796978213310418e+00,6.190320539239123399e+00,-5.804856322446821260e+00
1.070875670899797250e+01,-3.626599830025986293e+00,-5.989087227732037277e+00
-5.992465015685517926e+00,5.996295155610623873e+00,-5.687909124802238203e+00
-2.235010911378820797e-01,-5.821816157957276694e+00,-5.887045867743585070e+00
-4.786529972462883364e+00,6.647745017402203693e+00,1.029395699483506910e+01
-3.397534534346767554e+00,-5.634401742758375242e+00,-5.999348551246452388e+00
-5.845730914582976112e+00,-5.988505726861895972e+00,-5.999278918950034623e+00
1.639850803963691561e+01,5.459886142702801592e+00,-4.761311806506986599e+00
-5.999131668129988881e+00,-5.781157795589637161e+00,-4.044393595376339690e+00
-5.865417732964823827e+00,6.120167360983384874e+00,-4.082664463784928088e+00
6.546418542644027561e+00,-4.644733050977905009e+00,-5.964162799341004018e+00
-5.784468977210288188e+00,6.208072300571540580e+00,-4.604177043652066814e+00
1.368153180967312110e+01,4.670431530816444798e+00,-5.583439660379179159e+00
-5.836111008274888157e+00,4.721045462884092991e+00,9.690767699757248721e+00
-4.892373773619238975e+00,4.943208875515124667e+00,1.707289566956447402e+01
1.409285532058079582e+01,-5.555689299479864118e+00,-5.105070103696069062e+00
9.316660108749482916e+00,5.897899385718811338e+00,-5.366162717673121918e+00
1.613402330626173864e+01,-3.105937911937171059e+00,-5.833744167189501617e+00
1.419996004820595026e+01,-3.642687271669743154e+00,-5.859790477962357080e+00
-5.988376241305933156e+00,-5.934788533437977520e+00,-4.795078663498273386e+00
-5.320176129376737784e+00,6.567018769714004556e+00,2.258539090251478143e+00
-5.574899291252436662e+00,4.747973323081413177e+00,1.344058112633378776e+01
1.202753130127662651e+01,-3.031797359313193940e+00,-5.999852326485176413e+00
1.861514598269471854e+00,6.235635162761817618e+00,-5.582681559150517892e+00
-5.974583932661178487e+00,5.772657419640753851e+00,-2.564434164434556518e+00
1.494726243647319563e+01,-4.372233554691074886e+00,-5.569731654663770293e+00
-5.848905954939113805e+00,-6.144315312860742395e+00,-4.237638379614167228e+00
-5.304919364296383222e+00,-6.035058529312157027e+00,9.060427991327783204e+00
-5.690641723427273924e+00,-5.839492089186005153e+00,4.332072394952195538e+00
-5.751000709666476141e+00,5.355845535382535161e+00,7.258552614823415183e+00
-5.106873414783231091e+00,-5.564546846549704107e+00,1.403937549205929258e+01
-5.435270490980237845e+00,5.566232824706969673e+00,1.074456204274554416e+01
-5.285963137862384364e+00,-6.322534152279484232e+00,6.603462303199946426e+00
-5.352636315098554753e+00,-6.514542604112429025e+00,2.522525045845883884e+00
-5.890902742341861398e+00,-3.094404799244796500e+00,1.546183914493008338e+01
-5.680378620381205224e+00,-4.143828895302133830e+00,1.468370146398004827e+01
-5.997035408107977972e+00,-4.386306313989346783e+00,5.985555008186203452e+00
-5.943662164177013985e+00,4.244336405885516861e+00,9.622545798481128898e+00
-5.849467742432230999e+00,-6.027657070554689689e+00,-5.970220570556009854e+00
-3.090856240345497330e+00,5.685620650919405605e+00,-5.997705520456498185e+00
-5.482922962846645376e+00,-6.357116764311926183e+00,2.247363595315721163e+00
-5.676947321862071405e+00,-4.776151176484924932e+00,1.206115601148308869e+01
-5.524704910126330581e+00,6.076804510383595925e+00,5.110551864767939101e+00
-4.927918833576477198e+00,5.443674348884230518e+00,1.566531349113599703e+01
-5.883803786715147588e+00,4.836060630084062950e+00,7.899766899904248518e+00
-5.399471528604109949e+00,5.246693793931419769e+00,1.295492597404722801e+01
-5.999991008687589833e+00,5.390229742530208590e+00,-1.334830542573319789e+00
1.392123185605282920e+00,-4.828734919720310437e+00,-5.993705219386972871e+00
1.367674180154324048e+01,4.523883883580994691e+00,-5.639860362576563091e+00
-5.999980318044428884e+00,4.235378837072128810e+00,5.975920747493426610e+00
-5.975541674279982729e+00,5.561593295647232260e+00,-6.830966891601131241e-01
6.417725371549813040e+00,-5.151780073815387162e+00,-5.857981864842368047e+00
-5.540857631694756869e+00,5.415722589500513884e+00,1.031227403385005026e+01
-5.992794878603672437e+00,3.036491576220394339e+00,1.292166905099955621e+01
-5.953920242505140514e+00,-3.955030613325195787e+00,1.074245717583013437e+01
2.815969527597634858e+00,6.237170011581552487e+00,-5.539766557055480156e+00
-5.452041168893169143e+00,6.408886636280008098e+00,2.077138184565067380e+00
-3.876631428393516821e+00,5.883037106545983441e+00,-5.979344496678357324e+00
-1.579764960729612477e+00,6.435366651812775451e+00,-5.541219248779894357e+00
1.008146598137740035e+01,-5.482692663787843479e+00,-5.526096630463293025e+00
-5.823581700032931074e+00,-2.725715899094574457e+00,1.700913212278719655e+01
1.924942511797263389e+00,-5.798458864387932898e+00,-5.815492791795103145e+00
-5.364483065636924231e+00,5.278674868591018310e+00,1.314527064725190364e+01
2.727252883156794372e-01,-6.505222902422389986e+00,-5.437002665419774949e+00
1.460180220553626640e+01,-5.390869776116229417e+00,-5.130432328721782120e+00
-5.922368733452251455e+00,5.589925257105899270e+00,1.041588690416558549e+00
1.747286651205054042e+01,-3.857328030337741964e+00,-5.327118234486293069e+00
-2.534705759154190385e+00,-5.572996326661536770e+00,-5.999727011605341609e+00
1.124096223893074864e+01,3.434633564093330094e+00,-5.993506102691983806e+00
-5.995161791691320907e+00,6.000587409071759915e+00,-5.999411259505934346e+00
-5.376835779077822508e+00,-6.539938091162857070e+00,1.281696306742503566e+00
-5.999895248619184329e+00,-5.704865865619054510e+00,-3.606859367169565012e+00
1.286887590770481893e+01,-5.460391254583878862e+00,-5.299403599144663524e+00
-5.893739262839492454e+00,-6.101817812697988508e+00,-5.364083295673819585e+00
7.880644646309144186e+00,-4.805184984020884897e+00,-5.892084615209017606e+00
-5.446708228071085678e+00,3.822136331331362769e+00,1.711301893543095431e+01
-5.472536968975241223e+00,6.178316369989957479e+00,4.945475373334573987e+00
-5.999755162010067977e+00,4.599915702458535094e+00,3.669006039324802515e+00
-5.907298112798420320e+00,2.753229332792979545e+00,1.611238681829144781e+01
1.418295548377500026e+01,5.991787421503066646e+00,-4.821051766889620005e+00
-5.828708482813319769e+00,-5.588412880991038278e+00,3.638857943797177974e+00
-4.882330962288862430e+00,-6.921557579308875496e+00,5.410867111964102527e+00
1.359528638995845284e+01,3.671043990802602686e+00,-5.888906216831755636e+00
-5.850042121871013023e-02,-5.531191411700993932e+00,-5.967388117756605048e+00
-1.111258118020415075e+00,-5.267609851065096827e+00,-5.997295732022267067e+00
-5.976637845922541104e+00,2.866239307265811664e+00,1.431619228722265902e+01
-5.448420212112604410e+00,-3.614612109810386276e+00,1.742401622388752713e+01
9.714947230409068268e+00,-5.568283851372005877e+00,-5.510989917184458520e+00
-5.999999706712431546e+00,-4.505548726682389926e+00,4.458794738693976356e+00
6.750204390555287759e+00,-6.828047823818303996e+00,-4.894409129130411706e+00
1.628385347375249381e+01,5.490122218465112169e+00,-4.769482156632101955e+00
-5.881420838925139449e+00,-5.388104396702031451e+00,3.998708788436543315e+00
-5.101334116586056844e+00,-4.919313977045280062e+00,1.631255521730691527e+01
9.546258637159242610e+00,5.313678743068602550e+00,-5.637816745552332698e+00
-5.623364253432852067e+00,6.261289007705886256e+00,4.139910050643713646e-01
-1.596026081693884269e+00,5.346529869205491892e+00,-5.997738897890487308e+00
7.370324165187575716e+00,-6.782483667024655105e+00,-4.895295451020159838e+00
3.066343321523099963e+00,6.293657894611230930e+00,-5.490966653927049634e+00
-5.357819294107813768e+00,-6.057275251374890424e+00,-5.941551053113343528e+00
-5.742515793874689578e+00,4.536517445927902514e+00,1.229915564565930275e+01
1.508754232629989112e+01,3.175992162857270706e+00,-5.899797268514754833e+00
7.163576982557847472e+00,-3.841661336566306595e+00,-5.995143339477915667e+00
-5.923466007690712409e+00,4.177577206390940212e+00,1.057053167094034585e+01
-5.024018471558476584e+00,5.596500832269279968e+00,1.451027434175287389e+01
-5.909722794654184597e+00,-6.006580871941817001e+00,-5.993085028784472357e+00
-5.660206421056635406e+00,-6.327895231253275021e+00,-2.783606601818312321e+00
-5.672714791363677733e+00,-6.303534075309355167e+00,-2.209828265866629060e+00
-5.995894399970082667e+00,5.839717761179048949e+00,-4.245786631693798441e+00
1.482678406433685225e+01,-4.392024301249583651e+00,-5.575627813677028755e+00
-5.891238475533435270e+00,2.947172650740443434e+00,1.585194690607780821e+01
-4.938486439048874743e+00,5.486459928438077505e+00,1.546493718584301469e+01
-3.355146208170340039e+00,5.761991270514779551e+00,-5.992856801581582182e+00
7.688611167894891629e+00,-6.125542076309145045e+00,-5.344382134788637551e+00
8.376763927023709755e+00,-6.750342610698689683e+00,-4.855153362778424686e+00
1.380771201436404283e+01,6.493619114143341697e+00,-4.517178742105215861e+00
-4.322327510835642705e+00,-6.049827814444085128e+00,-5.921108341707518541e+00
1.602863158347046380e+01,5.079165046293748098e+00,-5.070815185960532823e+00
-5.264657107455051666e+00,6.454110525798350650e+00,5.368802247618039480e+00
-5.579174713982902212e+00,-5.004578837255894364e+00,1.217248815036373877e+01
-5.775323198421933313e+00,-5.983041776679938195e+00,7.940238143168365514e-01
-5.871766068476407696e+00,-4.712241726724997193e+00,8.954594397749069401e+00
-5.991831521524161097e+00,5.780820683916110703e+00,-3.461190519349602646e+00
-5.999031630613782973e+00,5.712939276543138156e+00,-3.477899818626740469e+00
-5.577995654837623718e+00,4.855813867182093624e+00,1.291758461621988729e+01
-5.506898924183587951e+00,6.116836218146311843e+00,5.001960643721575117e+00
7.810195557088848162e+00,-4.494919110856968381e+00,-5.955342276259452561e+00
1.356615862041604359e+01,6.344091640156426237e+00,-4.661522764834008292e+00
1.680366386701656367e+01,-3.690576298993426541e+00,-5.564617771218349773e+00
-4.171091885443823699e+00,-6.173905534271614037e+00,-5.821491604818318066e+00
-5.894766526044792343e+00,4.805225122206636890e+00,7.809599455480486618e+00
-5.941838063727659325e+00,4.004929445370305707e+00,1.089094472650112166e+01
-5.672974142242583895e+00,3.293071701694194608e+00,1.696455255739020984e+01
5.378922216320687344e-01,5.257813073453874608e+00,-5.994635336942432779e+00
-5.405279713576022438e+00,6.525351036320428122e+00,7.693734297779541986e-01
-4.952238723155070410e+00,6.749197154134735754e+00,6.879401216588496126e+00
1.508897524646192245e+01,-3.811710823209706334e+00,-5.746785850160058828e+00
1.633922182351152586e+01,-4.565750123552912321e+00,-5.278356933132580586e+00
2.384279095750093447e+00,-6.426522168031051585e+00,-5.426271947423400022e+00
-5.942504811240698182e+00,-2.979913811635790388e+00,1.488789116235962240e+01
9.738582676962174389e+00,4.207991021358528982e+00,-5.945954176715170902e+00
-5.996122585179444187e+00,5.615335443678232785e+00,-3.573065452188149749e+00
-3.164903980894568924e+00,-6.431875878821520232e+00,-5.545933337093220672e+00
-4.198702201758824692e+00,-6.313629762680649904e+00,-5.663676264459240883e+00
3.300762095182370182e+00,-5.010597324317417112e+00,-5.980809902239466957e+00
-5.107265947082106905e+00,-6.352831335133811486e+00,8.971915110260940907e+00
5.397617754455410477e+00,-6.513228753252911396e+00,-5.219690649682410033e+00
-8.223911630767851699e-01,5.708073153809821498e+00,-5.944884098136665962e+00
9.239911390616695641e+00,-5.784330147836594271e+00,-5.434176553508891061e+00
8.368989375603089087e+00,5.250627139179385061e+00,-5.732271955540396036e+00
-5.374133218759488351e+00,-6.068625870256792787e+00,7.760686018636429928e+00
-5.416528639942902679e+00,-6.079487372638137543e+00,6.984781451677316788e+00
8.167769463851273670e+00,-4.017282012915041278e+00,-5.996058160406851911e+00
-4.977978625477176955e+00,-6.588345404758583435e+00,8.420583506938774221e+00
-3.047958751396890875e+00,5.806288974171274653e+00,-5.978273201138266657e+00
-5.598061742010758124e+00,5.955489941424608524e+00,-5.999842683979910163e+00
-5.907245908960091718e+00,5.943801444441882964e+00,-2.260195405815291103e+00
-4.986205214055308588e+00,6.863641568990857422e+00,4.216808273408272356e+00
1.313973493331003795e+01,-4.792652312314846341e+00,-5.584085178232702340e+00
2.888746077366088905e+00,-6.516241802695474483e+00,-5.336379791725986088e+00
-5.418706207020670185e+00,-5.867772341391689572e+00,8.813047573078305774e+00
-5.376245394069280259e+00,-4.713019792540043440e+00,1.532254190783724468e+01
-5.114906552847069854e+00,6.667840557470186447e+00,5.099303467739594531e+00
-5.987017327632796260e+00,-3.350563463992881630e+00,1.204653439081585375e+01
1.936172121211163777e+00,5.597692194242648078e+00,-5.890174163374576999e+00
2.783926937859373396e+00,-5.102771600016887454e+00,-5.978295892580183235e+00
-5.974187681416645468e+00,-6.025372599831026577e+00,-5.713810638316118684e+00
-5.639345798011746069e+00,-6.025787518418201039e+00,-5.972693591064697216e+00
-2.765198250290351378e+00,6.055367484018380431e+00,-5.868212841919408618e+00
1.346266095100501303e+01,4.924734987479213011e+00,-5.498427624893321486e+00
-5.999928392379620945e+00,3.066839372160400590e+00,1.162023471879118830e+01
-5.499088224947084491e+00,5.169305772359186868e+00,1.227282367580960276e+01
-5.569885800562763833e+00,-4.412519280575668112e+00,1.480678504484142266e+01
1.560649440490136897e+01,3.413880052129814047e+00,-5.808229335790365155e+00
-5.806686432014968702e+00,4.620977446086304674e+00,1.081972036541033155e+01
4.810491758400638140e+00,4.679520677755186320e+00,-5.991118637692628646e+00
-5.613858456972173450e+00,3.083016706751346536e+00,1.754250927655551706e+01
-5.920985868728187107e+00,-4.736406320660979219e+00,7.501798946080441510e+00
-5.870052766010659617e+00,-2.630089030035728470e+00,1.679786927784983419e+01
5.226929178044120938e+00,-5.175475319186820577e+00,-5.896686392425340983e+00
-5.908388858211700345e+00,6.014610411474591523e+00,-5.984822145852974451e+00
4.999081234758814496e+00,6.565913020287803548e+00,-5.200513208270531429e+00
6.285641952359510842e-01,-5.711319347903589083e+00,-5.897704395741971695e+00
-5.054327916954389543e+00,5.207973409855529034e+00,1.573135520051014602e+01
-4.313090227112625907e-01,-6.011175503644358820e+00,-5.808680114484118029e+00
-5.925621129117332408e+00,-4.447721098338347723e+00,9.073151340071460069e+00
1.489444019035792621e+01,4.282515248377491091e+00,-5.609687729256159550e+00
1.657379861135233412e+01,3.842025264310553467e+00,-5.548943814434607269e+00
7.176246641902944035e+00,5.037679268583099557e+00,-5.859588402077308800e+00
1.225471353940985964e+01,4.856433953327617736e+00,-5.632193079983303541e+00
-5.978037157250553513e+00,-5.868333611428067975e+00,-3.669639083440567440e+00
8.051777367465517976e-01,-5.538141577655509629e+00,-5.943384812773333969e+00
-5.854554869637314418e+00,-4.684889050384891007e+00,9.506287033626447780e+00
-5.859850314614362787e+00,6.052990416355906511e+00,-2.477593945086878691e+00
-5.974306912505864986e+00,5.554824122756087945e+00,-5.676776424241276597e-01
-5.654245447462728613e+00,-5.148247884959059384e+00,1.033762726637983143e+01
-5.176836605468216668e+00,6.004619042718076116e+00,-5.973041906114860744e+00
8.388593229004925877e-01,-5.471783604649414379e+00,-5.957862964234061032e+00
-5.741756822436753005e+00,3.141328895459443604e+00,1.682496178099196626e+01
-5.730254782133175517e+00,-6.253783485165921974e+00,-2.917714253001100211e+00
-5.884386713186255946e+00,5.354266619200220845e+00,4.191472356002309496e+00
-5.703076789593144902e+00,6.188975108741790798e+00,-4.160703443893609688e-01
1.307917696908498861e+01,-5.708232496491890906e+00,-5.138540419509920021e+00
-5.732103453378734059e+00,3.171443703927456781e+00,1.683135667302314431e+01
1.337689095652176441e+01,4.521950851229435742e+00,-5.666366892853886839e+00
-5.187938555518378791e+00,4.624822596744062153e+00,1.662857681398601883e+01
1.350113391111506012e+01,-3.960607553825452598e+00,-5.828355412950063652e+00
-1.284566110167537856e+00,-5.836762289237169554e+00,-5.917552255427118268e+00
-5.995948743745535658e+00,-4.704958271670752090e+00,4.179929817172150841e+00
-5.919541290935407929e+00,-4.135568686404851313e+00,1.088502375470007344e+01
1.178922426794484402e+01,-5.239454874341049617e+00,-5.508072145511071938e+00
1.617126794219032249e+01,5.335539060783629495e+00,-4.891572269396308847e+00
1.445279352193342426e+01,-3.835788877410716058e+00,-5.794121487924516423e+00
-5.751252500896731235e+00,-4.488590766303246049e+00,1.239608088603337954e+01
1.301155160629003227e+01,4.671271027460915271e+00,-5.642127337521081643e+00
1.293898212081616883e+01,6.087879735638255241e+00,-4.917783541834408467e+00
-4.194782755603097435e+00,-6.143078642760161578e+00,-5.849215150671973618e+00
1.397209733348430483e+01,-5.717627282890786589e+00,-5.024722835624911177e+00
1.348494241379027958e+00,5.586827020936855348e+00,-5.913451924619724132e+00
-5.887474693165461126e+00,-6.097538996864743766e+00,-4.284543468114569542e+00
1.462255765365123139e+01,-4.498081007009843368e+00,-5.556511522612606058e+00
-5.053674229339471857e+00,-6.294540541176714576e+00,1.015506554368004366e+01
-4.361682276776051914e+00,6.272692314652870138e+00,-5.710991415872993748e+00
-4.700437980023733253e+00,5.885864867214908536e+00,-5.996441400965971447e+00
8.102860806126754412e+00,6.972497464610194484e+00,-4.687868514217650606e+00
-5.910977033292190264e+00,-4.074181688033583271e+00,1.139926586963547628e+01
-5.801458972670881842e+00,-4.415564499657510744e+00,1.195133217062095099e+01
-5.567975681986395919e+00,-3.729543074864314356e+00,1.670615078926575592e+01
-5.148080172760209905e+00,4.395559856646725549e+00,1.722405035807240736e+01
9.409672326448465185e+00,4.637921006054328110e+00,-5.870872826463936711e+00
2.936182481004675271e+00,-6.046953399574261034e+00,-5.648965700804176038e+00
-3.499168092847242395e-01,-5.150974232538684028e+00,-5.997152540449912195e+00
-5.891544330310603428e+00,-2.986442091166173096e+00,1.574586376833366153e+01
-5.571371370715487714e+00,-6.384774953944711839e+00,-8.735291189004679158e-01
1.486507653518527938e+01,-4.511184639661040663e+00,-5.523715132224505275e+00
-5.234439776753196050e+00,6.511729056216966960e+00,5.139158804743707343e+00
6.984873398231046693e+00,-6.797935105591069060e+00,-4.905925931165856291e+00
1.229889968759246877e+01,-6.590845806235962279e+00,-4.633050483156060828e+00
-6.970484711742445105e-01,-6.381808224403774155e+00,-5.569074457401378631e+00
1.496201401570509759e+01,5.784220189501142251e+00,-4.837803080275336676e+00
-5.994009721351724274e+00,5.085651436225478328e+00,1.837752724628105572e+00
-5.367799410042233710e+00,-6.513651994789766420e+00,2.151763292147592210e+00
4.337769514311590413e+00,4.470012729755226566e+00,-5.999443378751048606e+00
-4.782765857841828172e+00,6.705548105882400911e+00,9.805666141008108738e+00
3.118356549375948195e+00,4.651575720348066767e+00,-5.998961372547987558e+00
9.309595985263374729e+00,-4.883971049758216942e+00,-5.807358997211578000e+00
-5.962632500291470627e+00,-5.655567084321290849e+00,-9.722394133624745471e-01
8.121375794691177319e+00,6.465773819042055948e+00,-5.088935101331832023e+00
-5.556680224376240318e+00,-5.219547263230151835e+00,1.128990607170445237e+01
-4.945422653825675141e+00,6.622058074323033061e+00,8.519352416492715463e+00
-5.792589505629957003e+00,-6.149389058617843240e+00,-2.259759212395782590e+00
1.463029522850640163e+01,-5.611432416401162193e+00,-4.997587719666845452e+00
-5.577941513392277173e+00,5.879514381237080478e+00,6.128123311852823996e+00
-5.398449375179534826e+00,3.737593502431982184e+00,1.741790110467128372e+01
-5.983214040696359426e+00,5.480131586580716530e+00,-3.873304081816192346e-01
3.107010414563755596e+00,5.177452584502856503e+00,-5.959592599716855510e+00
-5.106792705259933562e+00,-6.543174047136287363e+00,6.978678029053319243e+00
-3.885963033471103945e+00,5.803547249852361922e+00,-5.995338985266099208e+00
-5.194771813773596314e+00,-6.724626142806223505e+00,1.837096238913062951e+00
-5.877316674157901488e+00,3.259518275612939053e+00,1.518265094066825505e+01
6.416849992611703080e+00,5.334904653511796546e+00,-5.799265056104393246e+00
-5.986883450879541435e+00,5.834005224911074983e+00,-3.700354662514270032e+00
-5.921085928625196004e+00,2.825691099550201368e+00,1.572651587500875259e+01
9.583303586530478313e-01,-6.510823552556671778e+00,-5.411876282437821040e+00
-5.979840709777874075e+00,4.664562510268729589e+00,5.657324145281297234e+00
-5.780579972837500691e+00,-4.264864850791548534e+00,1.296789545141049516e+01
1.328705405070204471e+01,2.853668718533034721e+00,-5.996494158351469927e+00
1.137455803064652216e+00,6.361533412631575679e+00,-5.524035252005078611e+00
1.572856552102673078e+01,4.592426379785440993e+00,-5.371815859560137518e+00
-5.140095796615327117e+00,-4.794092589721650199e+00,1.644617239796698627e+01
-5.971392265490287343e+00,-5.327861735366603568e+00,1.433328480029272933e+00
4.597775225157511692e+00,-5.079293219847062169e+00,-5.939350504470842118e+00
9.997013298586635344e+00,-4.504605913746451584e+00,-5.877782447985103076e+00
-5.743112112481834508e+00,-6.243225021230173866e+00,-4.523277368067634363e+00
1.443045041462852573e+01,-5.650606282290321580e+00,-5.002804698911846870e+00
6.900430623678921460e-01,5.280819813904790827e+00,-5.990785057691783599e+00
1.270204722064518243e+01,-5.510508917757483971e+00,-5.289721501755580313e+00
1.098914626103915992e+01,6.102706078062747785e+00,-5.107350778236786404e+00
-5.102784187953954387e+00,-6.461057150486712253e+00,7.967927177748284961e+00
-5.704594663373702801e+00,6.276899813129900529e+00,-2.634421266217007673e+00
1.054332237262132388e+01,6.025095977236303746e+00,-5.194822820029101784e+00
1.222333211604469660e+01,-3.451882426339039966e+00,-5.974645814532915544e+00
-5.949359770712874251e+00,-4.780520377940317367e+00,6.275740783554057955e+00
-5.856365982725604269e+00,3.398011034837936428e+00,1.506037065992186541e+01
-1.190501244771791312e+00,5.856327732682983900e+00,-5.907037479638176158e+00
-4.874063215579012898e+00,5.061157524151064457e+00,1.690249451331248665e+01
1.715451899426578919e+01,4.643865816144456815e+00,-5.037553107801517882e+00
-5.424680866612644259e+00,4.278873092875591588e+00,1.626293287106078367e+01
-2.094818164113074310e+00,-5.717736201989646716e+00,-5.975854137131486610e+00
1.563885274032354822e+01,-4.092888141848546546e+00,-5.592546492229795163e+00
-5.884570671350637383e+00,5.350795451712961004e+00,4.214274874803413340e+00
-5.554286684936792895e+00,5.662919592209647135e+00,8.372888357105720658e+00
-5.981158036313854787e+00,2.873085555192353979e+00,1.412072936311721350e+01
-1.312623416442763924e+00,5.994159097331427155e+00,-5.850080887631375681e+00
-4.950580099688953517e+00,6.878345215435917481e+00,4.756448401562433759e+00
-5.625117668317489716e+00,-3.881602080803075339e+00,1.597559262346690367e+01
-5.607849575682725352e+00,5.525528621634567372e+00,8.550479477902792169e+00
-5.141977307836117284e+00,-5.377878619073559463e+00,1.457127309700483586e+01
-5.339578074914142825e+00,-5.509459709446519859e+00,1.219696842006038651e+01
-3.237334653790004957e+00,5.650346420674632775e+00,-5.999974965996947240e+00
1.842224735285304948e+00,-5.929724155330043267e+00,-5.758824681939315404e+00
1.362203440278256217e+01,2.812581649983439736e+00,-5.994324791569870747e+00
-4.457343987089965154e+00,-6.167177344728670185e+00,-5.830272313786942107e+00
-5.996812029595083082e+00,5.597618902132115437e+00,-3.404060810122334857e+00
-5.312014749309533990e+00,-4.087521762273478743e+00,1.718098676124587953e+01
-5.453667069423770108e+00,5.985011060076897316e+00,7.273081224995802785e+00
1.003543370428422499e+01,5.636562313914438072e+00,-5.453756949821804589e+00
2.686369049462014047e+00,-6.680190628218441340e+00,-5.207991182159591226e+00
-1.893488743588678247e+00,5.578901450008623364e+00,-5.994078466934198879e+00
2.991239466457523033e+00,6.407397777023025931e+00,-5.414489672968552547e+00
-5.982364801849167968e+00,6.004374528364211372e+00,-5.481572835855281767e+00
8.208294851092496458e+00,-4.111806690418151611e+00,-5.990179466643120954e+00
4.544935864687217553e+00,5.043847334880967814e+00,-5.947839914108989490e+00
1.834966460008186750e+00,-6.610508610094986359e+00,-5.298043776320612075e+00
-5.026284970507421512e+00,6.780053387117524366e+00,4.997801341418614207e+00
-5.213707549852938605e+00,6.544569551033140975e+00,5.060912294038501180e+00
-5.929439009182314813e+00,5.833749077238445935e+00,-1.618236977146547684e+00
9.446233784823746760e+00,-5.454702774334734272e+00,-5.582763470796122895e+00
-5.731279672823283100e+00,5.642227307635538480e+00,5.342608676654307942e+00
-5.600152919009273589e+00,-6.383458980453626808e+00,-3.369957604974231913e+00
-5.659320805848498281e+00,3.273635625102327307e+00,1.707283330588623826e+01
-5.565461112113166742e+00,-5.242246819877750319e+00,1.104184760008424249e+01
-2.122008492032296800e+00,5.799614039552586142e+00,-5.955723950059931049e+00
-5.984600720299917853e+00,5.672844019324151610e+00,-2.099159649428179009e+00
2.994322286920247489e+00,-4.755804996215831082e+00,-5.999973889837065144e+00
1.470251830878872212e+01,-4.693006306273915129e+00,-5.465920758753437525e+00
-4.855948968659936860e+00,6.097819269259838748e+00,1.339428533072702621e+01
-5.285042772707910785e+00,-5.172783181966308597e+00,1.432036578971468543e+01
-5.740915079069622173e+00,3.434156628968483727e+00,1.619714029204095596e+01
-5.092403318324284278e+00,5.021144721808044054e+00,1.608264546825036589e+01
-5.060469527888845853e+00,6.167509568949568255e+00,1.104439839907829857e+01
6.004186071822730675e+00,6.749774290326751469e+00,-5.001110086324188408e+00
-5.568792410334665988e+00,-5.191527525765583739e+00,1.129142366410633791e+01
1.008348733456617685e+00,4.878851133165358789e+00,-5.992763620523078316e+00
-5.743331298999521550e+00,-4.341810173029137410e+00,1.316593358149109427e+01
-5.964585201849247120e+00,-5.805616178709528619e+00,-2.504002285730715371e+00
-5.773927537621299066e+00,-6.177237908925058640e+00,-2.281216721465229913e+00
-2.919871475649613579e+00,-6.275710870388071960e+00,-5.710854461327958376e+00
5.109901290729875534e+00,-6.141079552944894715e+00,-5.486606444806971794e+00
6.060868212974912517e-02,6.339782311824163408e+00,-5.578943296577929978e+00
1.570241582844326445e+01,-4.156022498291998879e+00,-5.560362246066291370e+00
-5.808802548647572728e+00,-5.682608469733638756e+00,3.247602346766740311e+00
1.736956488393716214e+01,3.609305022836092114e+00,-5.466699448953518115e+00
4.255361316185585219e-01,-6.257455840478352904e+00,-5.625587448778091471e+00
-5.721527577860080704e+00,-6.033974538013956668e+00,1.447018614778670109e+00
-5.979732052104884232e+00,5.828042123401928620e+00,-3.325478221791430489e+00
4.541121835330560685e+00,6.496466315716070028e+00,-5.276231282192418881e+00
-5.530549394811696828e+00,-6.427846984387961093e+00,-7.228604156970241945e-01
-5.120532012969676749e+00,4.789395031151437720e+00,1.654553743543964117e+01
1.493670935916772002e+01,3.135446084670689970e+00,-5.915828831023584478e+00
-4.885837886615905568e+00,6.317621286504771838e+00,1.180228000954775958e+01
-5.990954933899335977e+00,-5.984692524858417961e+00,-5.476501880447584902e+00
-5.339195722752793749e+00,-4.074865758399574212e+00,1.710203202905413633e+01
-5.280831225626555714e+00,4.692400794225314975e+00,1.599090032768454606e+01
1.567263790986138083e+01,3.369620290727004974e+00,-5.813346046428613967e+00
1.331392995624220887e+01,4.489330308643104672e+00,-5.683044231084987352e+00
-1.101623718905685889e+00,-6.345538141884841110e+00,-5.610172075045936069e+00
-2.219970781888497946e+00,5.637130573551349499e+00,-5.991954931325301992e+00
1.590871681334183840e+01,-4.716006940260555780e+00,-5.283502829597160222e+00
-5.359495950624661553e+00,6.489102163219603980e+00,2.842096295964327890e+00
1.299053445963414077e+01,-4.109912850096982595e+00,-5.822007662680419138e+00
-6.442651515412456398e-01,-6.427281788128753170e+00,-5.529075017562243843e+00
-5.546661505062040476e+00,-6.193313408012858012e+00,3.271369431419178131e+00
7.012963196600965787e+00,-4.364221418734356206e+00,-5.987234893637983113e+00
-5.849299021841262380e+00,5.600261177227548792e+00,3.015523609166578023e+00
-3.821949408318295216e+00,5.910276298648122761e+00,-5.969716843620752833e+00
-5.088670125828397950e+00,5.057077669427990863e+00,1.599999964750504411e+01
1.265633442191245983e+01,5.544716871369914202e+00,-5.275906463200349172e+00
1.534761955298700542e+01,5.717743962577855221e+00,-4.814502586327141564e+00
-5.968633458219906096e+00,-5.641193441614903215e+00,-1.082669349990827978e+00
4.134470595591576370e+00,-6.503477144358979167e+00,-5.290683032846103195e+00
-5.938700171193228350e+00,-6.052694071383361241e+00,-5.024626038167794739e+00
-4.949791781035122185e+00,5.258414279750152964e+00,1.611599496779227891e+01
9.122835214757648359e+00,5.413063667974009618e+00,-5.622148196185489333e+00
1.619170963954431031e+01,3.234473674272447585e+00,-5.796318301241817572e+00
4.003209953341118954e+00,6.741726679585661408e+00,-5.103422924658155502e+00
-5.890417283838103479e+00,-6.011261304287779161e+00,-5.988707380075188880e+00
1.335843582456208800e+01,-5.701408764131602247e+00,-5.110542395277483330e+00
-5.023049663229618211e+00,5.278760676890961179e+00,1.568001761910966962e+01
-5.825184916945245206e+00,5.990321708894271957e+00,-5.844878769436934185e-01
-5.993374687687769153e+00,-5.769206308427358820e+00,-3.451803175256448419e+00
1.231905493191789347e+01,-5.143649958993146143e+00,-5.506670645628064520e+00
-5.997939938122991421e+00,5.335878401067326138e+00,-4.145956364568015307e-01
-5.783991357670475786e+00,6.207128806283507494e+00,-3.638088613712301189e+00
-5.682463148620247928e+00,-3.857910335619374020e+00,1.557417280909511881e+01
-5.806087061604836563e+00,-5.770985106726414848e+00,2.440889874760388434e+00
1.074997436386487237e+01,-6.163762989053739538e+00,-5.089328426229495328e+00
5.665801424106586381e+00,6.609781886253663252e+00,-5.131708995828557995e+00
-5.335057517204059074e+00,-5.968522414053403224e+00,9.186819396492348133e+00
-1.894298880871143620e+00,5.584155491837351271e+00,-5.993538466458669944e+00
-5.274033994985834362e+00,-6.355671934696615288e+00,6.426981405989148577e+00
-5.865173018666735238e+00,-4.440529264729751624e+00,1.061987770844992163e+01
-5.233641553619635012e+00,-4.916896510350984961e+00,1.560429017911142147e+01
-5.986026347315300811e+00,-5.203274133106744692e+00,1.596540978688142820e+00
1.574370695972248946e+01,4.119266768963446346e+00,-5.568922562895116890e+00
-5.359108221976185860e+00,-6.349165441987842051e+00,4.983319811353872808e+00
1.046950907905834605e+01,5.078593124657511559e+00,-5.672942457580394837e+00
8.290405919704168625e+00,3.727815528144771129e+00,-5.999026976898215402e+00
-5.432949038840931166e+00,-5.402911548230581396e+00,1.176133424398104488e+01
-5.379755524029458336e+00,4.940605993178722066e+00,1.448150439619178265e+01
1.323055800118175007e+01,3.368590915657793339e+00,-5.955171165799965749e+00
-5.999997452986105984e+00,-5.758574594510151634e+00,-4.120059317159570966e+00
-5.772324498133932558e+00,-5.769056158359289199e+00,3.257069011084471999e+00
-5.750628602504789022e+00,6.085584983077845678e+00,1.346345763604372969e-02
-5.999848634493980093e+00,4.045330504216432033e+00,7.270686648778561079e+00
-5.584354651158952798e+00,-5.992751097976867669e+00,-5.990926675284561576e+00
2.793023603093070850e+00,5.295469539554309435e+00,-5.944276753602108165e+00
1.236867149302558033e+01,5.266103374062821807e+00,-5.445544436263236143e+00
-5.806124327957028264e+00,-5.884151899476099956e+00,1.218367416116141300e+00
-5.948287205056316473e+00,-4.094096420362376421e+00,1.024645588676794539e+01
1.749472438934687446e+01,-3.476110083668282336e+00,-5.482585796232192443e+00
-3.637260008348458307e+00,-6.359762535841780640e+00,-5.623207555778658495e+00
2.118678506405493600e+00,6.219072093025922676e+00,-5.582416387587798567e+00
1.035202438800268787e+01,-3.833126253942914730e+00,-5.978215167339761216e+00
1.133516986379216718e+01,4.147847659291242550e+00,-5.898944826306270706e+00
