-9.363197341438266319e-01,2.280325161225944530e-01,-2.635707215923582813e-01
-6.553297856121257370e-01,-1.721529727308747093e-01,-9.999999347152183082e-01
-9.984574503043924798e-01,-1.702199735835946415e-01,-4.963641642926998054e-01
-9.965862554625615211e-01,-1.250589617536292941e-01,8.031941614472293267e-03
-9.970364011213599387e-01,1.977119330398806607e-01,-8.504001749003047284e-01
-9.969886780213208510e-01,-1.489148171715325430e-01,-2.045956561919148875e-01
-1.284884014299741972e-01,-1.273287859116511989e-01,-9.994727445311802905e-01
-4.517770568357243333e-01,-2.221790444398781261e-01,-9.541146348194118332e-01
-9.593023267576937796e-01,1.415189658049651467e-01,2.817261686797083442e-01
-9.549835702473603583e-01,-1.807625983849668883e-01,1.121317507567871630e-01
-6.235983011452357339e-01,-1.970535525377845598e-01,-9.895017021330637652e-01
-9.998938323796741079e-01,-1.776841601535430470e-01,-7.469518728618871339e-01
-1.448823414188296077e-01,-1.307780961565754296e-01,-9.992970405570633652e-01
-9.839461845010708529e-01,1.929172336826427969e-01,-4.211260012801218977e-01
-7.885569532075531463e-03,2.191095537170049123e-01,-9.274555368941874711e-01
2.986395180898278046e-01,1.317959660328156257e-01,-9.619752754550212615e-01
-9.813575388108953801e-01,1.175311969973371617e-01,2.529731317843357807e-01
-9.760186895831082232e-01,1.656617390496710751e-01,2.665001257509258537e-02
-9.999777980757127427e-01,1.390097319463514669e-01,-2.944004165196800749e-01
-9.700795591585005262e-01,1.755867864535227696e-01,1.015693105712767164e-02
-9.822056038354735064e-01,2.103526224403153844e-01,-8.361056443549920170e-01
-2.959393420831218924e-01,2.286966531939051972e-01,-9.372708271135472557e-01
1.099725391748738179e-01,-9.276051676595564732e-02,-9.994696434716353606e-01
-9.852761374813252537e-01,-2.082884951150063557e-01,-8.295383649391911973e-01
-9.924436715404518772e-01,-2.007786141594049001e-01,-9.986283165830811548e-01
-9.716956373221656840e-01,1.190931956581495754e-01,2.964933052026810234e-01
-2.324213498441352055e-02,1.280115358243243406e-01,-9.969145971164846687e-01
-9.220563346530326054e-01,-2.177693292529685465e-01,5.438107579082318566e-02
-9.989891478223961174e-01,1.995157937461080611e-01,-9.540470213342606698e-01
2.510204209524118379e-01,-1.355959973782752126e-01,-9.704946650925575513e-01
-9.982010490649504408e-01,1.847047810517776778e-01,-6.752304885344779795e-01
-9.227354088424422063e-01,-2.263026412314227409e-01,-5.423053792914833693e-02
-9.443775496526748414e-01,-2.169360195556233606e-01,-1.692739824249600566e-01
-6.707995140657369015e-01,2.184122016748188955e-01,-9.668323081446726919e-01
-1.329340916506905890e-01,1.732878451254558083e-01,-9.822626991062304302e-01
-7.527860124939862452e-01,-2.006167363500702683e-01,-9.914512674178964646e-01
-9.879370478604412309e-01,-2.068694020064646422e-01,-8.620278036670545596e-01
-5.718847820847825503e-01,1.718634739242170806e-01,-9.994173685028372445e-01
-5.196009573460182995e-01,1.731305483951186552e-01,-9.981880230184579927e-01
-9.741584056463236108e-01,1.768878093302832522e-01,-5.184509196797371100e-02
-9.984891312477159886e-01,1.457694789182477635e-01,-2.347048418572357242e-01
-6.471152748180324377e-01,1.721314142691758864e-01,-9.999944766464835544e-01
-8.196847818382486661e-01,1.945802865623500466e-01,-9.979075264772496734e-01
-9.852537355547841269e-01,-1.621979211615077743e-01,-7.102434765831311392e-02
-9.845213242122489161e-01,1.934984578399885358e-01,-4.428762040455763715e-01
2.597021455092731745e-01,-1.150117533255197166e-01,-9.816933535591843007e-01
-9.231679248290908246e-01,2.310510641934664378e-01,-1.345550778235562461e-01
-9.631373358092765180e-01,-1.887530438642736064e-01,-3.732537596435114846e-02
-9.376426323994705436e-01,2.228173276510512224e-01,-1.782254431855556653e-01
1.141911584936905477e-02,-1.175959790214289313e-01,-9.981640340678133994e-01
-5.117654309022403591e-01,2.023235687041016195e-01,-9.801625222916334756e-01
-3.708494302357163708e-01,1.382908911460623003e-01,-9.996116461902291306e-01
-9.656630799040931690e-01,-1.668406258055418201e-01,1.225299753582274054e-01
-9.506436467573381455e-01,1.957095549973324466e-01,-9.999695605679828070e-01
-9.203987029635433137e-01,2.013512031559419047e-01,1.944398981387693848e-01
-1.352767025530537959e-01,-1.515367196968552266e-01,-9.936863142574394736e-01
-7.138915908206806549e-01,-1.828985930486456413e-01,-9.994415742108793133e-01
-9.705573886535798778e-01,-2.164783255301845344e-01,-7.054530687003401912e-01
-9.999789239730509927e-01,1.818553451059825576e-01,-7.808201318669946156e-01
-9.999635081689708382e-01,1.685846879793095887e-01,-6.326605053584016813e-01
-8.735265094905448890e-01,2.057635164220998902e-01,-9.897278690838514636e-01
1.675541533600315436e-01,9.404397937613762082e-02,-9.976474706968971873e-01
-9.995112314285343746e-01,1.753102104828363483e-01,-6.211554643623624639e-01
2.268832606455306600e-01,1.303554267553566071e-01,-9.777693008267480668e-01
8.204196231188110033e-02,-2.028787747547688980e-01,-9.362884813200245127e-01
-4.115350810601986487e-01,-1.599207374886795208e-01,-9.990771802404517787e-01
-9.973266128674149744e-01,1.612810227785510531e-01,-3.443394012768684620e-01
-9.667410913869525224e-01,1.910518066932633818e-01,-1.070902142335459217e-01
-5.353904686071392360e-01,-1.710607018300359661e-01,-9.990030916214226453e-01
-9.866891430725931444e-01,-1.169129918812035207e-01,2.132216252162717485e-01
-9.957394770304938136e-01,-1.618629528100221648e-01,-2.963614605836085714e-01
-9.999046012308167031e-01,-1.924080404580362780e-01,-8.814462483197804676e-01
-9.719092897118311036e-01,1.140135804221187321e-01,3.070411884398338564e-01
-9.870116915122728596e-01,1.320146355754994172e-01,1.313329901211415240e-01
-9.852241509385646356e-01,1.117263116658757660e-01,2.468740472195429803e-01
-9.910928113223687053e-01,1.476974966109443343e-01,-4.511877866582070240e-02
-4.110202451310814853e-01,-1.572029427325531969e-01,-9.994902536529569614e-01
1.529386082122430324e-01,2.002785990765338919e-01,-9.290573991794621733e-01
-2.798727684898081325e-01,-2.068349104733532284e-01,-9.633782410944409236e-01
-9.902499600164983429e-01,-1.400530370413609615e-01,3.064564814258208258e-02
-9.998968320250195552e-01,1.796280799575482590e-01,-7.687745285096849734e-01
-9.489336573762670035e-01,1.573217863081795009e-01,2.700806051626143400e-01
-9.996280634458981629e-01,1.413499809947258434e-01,-2.645393641281648112e-01
1.182052839415352885e-01,-1.385480740629749796e-01,-9.847977180485710802e-01
-9.656625260821590784e-01,1.673130429578764122e-01,1.193009794328618867e-01
-3.379147995757397771e-01,1.368225883548999100e-01,-9.998079991545721912e-01
-8.548373183911485151e-01,-1.909349640084183619e-01,-9.998431987675915344e-01
3.067677927612726396e-01,1.126067992167152365e-01,-9.729118894087048774e-01
-9.773517606655084400e-01,2.044656812855798478e-01,-4.959842902391182751e-01
-3.049466848489805759e-01,-1.362590240866133895e-01,-9.999681560445263795e-01
-9.735042261036431777e-01,-2.136075254036685633e-01,-6.597210610852386470e-01
-2.980713364324141246e-01,-1.452292531925852836e-01,-9.995915119197623655e-01
-6.619112351359182078e-01,-1.729526535377718943e-01,-9.999996264480862651e-01
2.003624673995845207e-01,-1.416709357362928579e-01,-9.742436924759888539e-01
3.004600586686996255e-01,-1.242484316356482488e-01,-9.669901559229677757e-01
-9.999570806580778681e-01,-1.920235980727184044e-01,-9.073245892065759932e-01
-4.120380750679201176e-01,1.652537443389299199e-01,-9.978938575863209870e-01
-9.941361491459848043e-01,1.853733010463780584e-01,-5.474018557777765581e-01
-9.865797616619350618e-01,-2.078889779512432812e-01,-8.943286073866720809e-01
3.691092699424958212e-02,-1.421946396274034186e-01,-9.888955460848977141e-01
-9.962993264395362258e-01,-2.016868104923251748e-01,-9.314130124290409540e-01
-9.560976636848915744e-01,-2.092124715044205718e-01,-2.076942636819836263e-01
-9.990300408943386667e-01,1.967810057269689938e-01,-9.011712687392617882e-01
1.092225000278959079e-01,-1.133853031054745664e-01,-9.955753125862423225e-01
2.161064845485636265e-01,-9.000162079059104148e-02,-9.961516860298706977e-01
-9.256458712116971688e-01,1.951447765239500143e-01,-9.999570187689017509e-01
-7.081246462849448697e-01,-1.778872662567488883e-01,-9.999784070428658911e-01
-2.694882510361451544e-01,-1.395295936838233386e-01,-9.998269775136994220e-01
2.703808437914714258e-01,-8.249595195023851080e-02,-9.940464024463510073e-01
-9.998947036606016248e-01,-1.945654398594859336e-01,-9.107963840049757565e-01
-9.965107778780355474e-01,1.582839904826289779e-01,-2.827472104294380673e-01
-9.694863409878844429e-01,1.927239689725768201e-01,-1.654021283236497553e-01
-9.743403931720341360e-01,1.357054781580777636e-01,2.273282213433325261e-01
-9.934678511880000729e-01,-1.263375247485168940e-01,6.965240367962932666e-02
2.717948394472613494e-01,1.467521843936703263e-01,-9.576189648746873395e-01
-2.157578297596616235e-01,1.562382065248533181e-01,-9.950165507508272889e-01
2.748703300952557438e-01,-1.205293713327546534e-01,-9.758058396975459736e-01
-9.944407394250359689e-01,-9.725303751859826207e-02,2.115330651527369543e-01
-9.999438287118164181e-01,1.292034928568035479e-01,-1.974193712638329101e-01
-1.422571060121398112e-01,-1.194223636730931126e-01,-9.999999963527859137e-01
-9.481696858076633649e-01,1.956506819367787031e-01,4.737201996896711620e-02
2.911458028229940709e-01,-1.336241432654734496e-01,-9.628557763929747049e-01
-9.990230771927360864e-01,1.660441508765573282e-01,-4.771496729555533278e-01
-8.454326792392916623e-01,-1.861270710729304723e-01,-9.998828189091120144e-01
-9.916976943702399128e-01,1.999654416836094128e-01,-9.997820077445678244e-01
-9.994280225496589010e-01,-1.428718292286283997e-01,-2.621292320654772245e-01
-9.989262956227817902e-01,2.002741639847158694e-01,-9.719254043261335019e-01
3.006046548889229619e-02,1.282098502757413883e-01,-9.947752044475405286e-01
-9.722833286849436041e-01,-1.213463502141388650e-01,2.884599080731484744e-01
-1.198690438623838395e-01,1.710596975088884975e-01,-9.828987952286056817e-01
8.345188612258569449e-02,1.419017140617278017e-01,-9.858177751359621377e-01
-9.456366309097766765e-01,2.044745135266352598e-01,-9.923879084620679247e-01
-9.696661253684619730e-01,1.969066554193177332e-01,-2.245576215904249162e-01
-9.929143932128996486e-01,9.737484528344197976e-02,2.306536529362346322e-01
-9.066778842274869632e-01,1.967434744150686754e-01,-9.991832650410790162e-01
-9.968917214331933785e-01,-2.017635909445026909e-01,-9.828385852869921946e-01
-9.754991517316541350e-01,2.019998741134045872e-01,-9.966158463775841581e-01
-9.848778389637540265e-01,1.788211094691622982e-01,-2.421510345869501979e-01
-9.983472344061143922e-01,-1.990956401074586157e-01,-9.230087520541085944e-01
1.896123426818507873e-02,-1.628370662706534189e-01,-9.785637751024863773e-01
-9.570103829096954229e-01,-2.046178687831751164e-01,-9.917420265595660034e-01
-9.932939879390269011e-01,1.837583813287260170e-01,-4.997856704595993182e-01
-9.987524516863889312e-01,-2.005907651554422744e-01,-9.772408315853300387e-01
-9.888262202836558545e-01,1.672561834776904455e-01,-1.864704643592891564e-01
2.701577649101571943e-01,1.088754106558584844e-01,-9.832612918576537631e-01
-9.833191043766262851e-01,2.081528292531729107e-01,-7.478462508130966357e-01
-9.753404418409307164e-01,-1.957410786028688232e-01,-3.008928597740655464e-01
1.981913310185814403e-01,9.928049120207704803e-02,-9.947374942166880007e-01
2.589354090750655146e-01,1.425900505874271307e-01,-9.638560042492461122e-01
-6.297062254604770537e-01,1.695551235278747182e-01,-9.999976608910063902e-01
-9.321064180708855673e-01,2.134735502651785577e-01,1.346276716341376911e-02
3.672893911478158913e-02,-1.490871464890105580e-01,-9.854473326505313047e-01
-9.591847057188073178e-01,-1.561046645536755539e-01,2.279415892958829293e-01
-9.908711784619745888e-01,1.480681044571439120e-01,-4.398996215948303146e-02
-9.974671003455076734e-01,-1.503245603520791951e-01,-2.356333665325909266e-01
-5.253013021528940563e-01,1.645551694614924010e-01,-9.998277344125076072e-01
-9.873734663348511242e-01,-1.967351637648794282e-01,-5.649907429107512424e-01
-9.988971271498638949e-01,-1.362168299471662181e-01,-1.679876801340207670e-01
-9.924216793353072275e-01,-1.975402381900794868e-01,-7.106185232886758074e-01
-9.727948374894261896e-01,1.173201819396476608e-01,2.967258470983258345e-01
-9.305743774893863174e-01,2.001908070587168353e-01,-9.977436534454677819e-01
-9.828602977758212900e-01,-1.836492106057135976e-01,-2.653615225118075571e-01
-9.516193287061517347e-01,2.252859213968554375e-01,-5.033832478337860739e-01
-9.417619239300299983e-01,1.963245647535194482e-01,-9.999529829733712072e-01
-6.232224776080464990e-01,-1.998310432863379393e-01,-9.872047678875186527e-01
-9.627388080379364332e-01,1.817637566491812073e-01,3.394853948995235626e-02
-9.552201846402257335e-01,2.180176066636674292e-01,-3.613507684542887066e-01
-9.880651557133142138e-01,1.447853231411579955e-01,3.055654460123591321e-02
-9.726892760215274381e-01,-2.149718277931417232e-01,-6.990196111803288481e-01
-9.964501936867825593e-01,-1.769792866508720364e-01,-5.015543367484252002e-01
4.719696593297229015e-02,-1.563624953060447353e-01,-9.804459070867860282e-01
-9.975710296204645111e-01,-1.922327704441080254e-01,-7.671080002074043280e-01
-8.204158722656118563e-02,-1.328947095871668704e-01,-9.975437973377512257e-01
-1.451539661683339810e-01,2.028081747575967153e-01,-9.583781865909315467e-01
7.739368826789561062e-02,-2.191260468762062930e-01,-9.173795289001404063e-01
-9.905445470711959910e-02,2.151410407728171492e-01,-9.409444166963870648e-01
-9.998736914553115751e-01,1.834059443740665429e-01,-7.578021413973258236e-01
-9.840495223984863093e-01,1.689719110300518246e-01,-1.173263451603304697e-01
-9.849267145656273037e-01,-1.792364366295925437e-01,-2.481791165060835969e-01
-3.158728379177448975e-01,-1.776175658920661204e-01,-9.892308979517532297e-01
-9.999608077466096701e-01,-1.997286998633923671e-01,-9.933719756011920587e-01
-9.877111375733517162e-01,1.017983306152676626e-01,2.629551508385996605e-01
-9.998668900129537018e-01,-1.274296025485432970e-01,-2.469523691886789107e-01
-9.351294517154407071e-01,2.299489520082003136e-01,-2.898438233631033256e-01
-9.861568563434656154e-01,-2.080693712499542825e-01,-8.646870438755427379e-01
2.771713784394078672e-01,1.012563433476665331e-01,-9.858814225607649417e-01
8.218401009928655299e-02,1.687680274531468960e-01,-9.685668957882654917e-01
-9.958495560691154047e-01,1.922262139640815715e-01,-7.095103241921685289e-01
-9.766174166638040832e-01,1.546107714546955947e-01,1.033530322971332183e-01
-3.783560648414658889e-01,2.252263829413638785e-01,-9.464947327351719286e-01
-9.830048758396654485e-01,-2.087388074177969344e-01,-7.622242277045345737e-01
-9.874101466220069900e-01,2.074005404898635607e-01,-9.033738303308529449e-01
-8.531943624188588204e-01,2.121165649478207182e-01,-9.790880615226641437e-01
-9.746755992045194050e-01,2.007548044896168005e-01,-9.984985875487871754e-01
-9.924166337241350222e-01,8.682768823263131708e-02,2.724271803460189822e-01
-7.291374681955793413e-01,1.992028396084675190e-01,-9.917904520690477010e-01
-9.068232030806644417e-03,1.772096644219434136e-01,-9.704626724726946874e-01
-9.865627458809244077e-01,2.039095613494099624e-01,-7.043283830115700805e-01
-9.987763932451195759e-01,-1.049186085520451561e-01,7.127230512720128530e-02
-9.697282948285100845e-01,1.153699755551778061e-01,3.107489168410202396e-01
-9.740118352762618947e-01,-2.148812492653654482e-01,-8.317387047515508725e-01
-9.866636053996837852e-01,-1.989446047351249858e-01,-9.999989764613346210e-01
2.748821350856824886e-01,-1.403790242946185707e-01,-9.619547196120655785e-01
-9.813625926892692863e-01,2.044711039282451903e-01,-5.868482425197893981e-01
-9.871346791824709976e-01,2.067571375109076293e-01,-8.195494279909342206e-01
-9.898387552561125347e-01,-1.891657627344286441e-01,-4.933076344099533994e-01
2.623157532348527887e-01,1.522863156482370250e-01,-9.552866350452591249e-01
-5.565535920335425990e-01,-2.135885918785966897e-01,-9.698215474776001876e-01
-9.998329560738024036e-01,1.774687922637150361e-01,-7.512420873326465243e-01
-7.283003143680961688e-01,-2.104608199192224971e-01,-9.797769665182930465e-01
-9.916404775108458303e-01,1.166692044906219028e-01,1.574854759795334402e-01
-9.411847194989952925e-01,-1.767049492821174406e-01,2.241360215993755123e-01
-7.315441519905143686e-01,2.127924788980948279e-01,-9.766485366701007642e-01
-4.531524277725659244e-01,1.491793818108981817e-01,-9.998239188882437345e-01
1.561353067013346863e-01,-8.760822166698600810e-02,-9.990741056003181741e-01
-3.002540597702905156e-01,2.278359665860918426e-01,-9.387353366884759742e-01
-3.618148049711711334e-01,-1.809091355586536221e-01,-9.893633400034000935e-01
-9.999881255813325431e-01,-1.430471054942245024e-01,-3.606310613187789782e-01
-8.033447796690778020e-01,-1.960976296759143755e-01,-9.965790049250903282e-01
-6.934106700937499035e-01,1.983461489039912706e-01,-9.911631810435438394e-01
-9.985522821670792526e-01,-9.866586192592885496e-02,1.167013591596814948e-01
2.237342903015457907e-01,1.004467219671991707e-01,-9.924450262809227929e-01
-2.151869007308762072e-01,2.266842966877824495e-01,-9.350905433125209498e-01
2.673791448666735793e-01,1.206571211007501088e-01,-9.771624667769505113e-01
1.922648481294340073e-01,9.398134866493434991e-02,-9.965137071030016891e-01
-9.999919431820304405e-01,1.438984534645091351e-01,-3.470301770698216437e-01
-9.956732669379714240e-01,-1.534575357439859067e-01,-2.068690139854403309e-01
-8.590731353425806738e-01,1.950366319479057697e-01,-9.987425207635507451e-01
-9.428129016808513008e-01,1.817713388589659029e-01,1.886917664323446431e-01
-6.990769051088689956e-01,-2.166250649998884281e-01,-9.702004091547934417e-01
-9.859017866052205425e-01,-1.821733286103136562e-01,-3.047306916736884919e-01
-9.995407007630446872e-01,2.002522614449473437e-01,-9.933220051419048291e-01
-9.738335769336396996e-01,2.085360623362981780e-01,-5.121883915127654063e-01
-5.249090043842055131e-01,1.680655278306903977e-01,-9.993928869788628599e-01
2.587076003991466422e-01,1.243512315461048345e-01,-9.764630806444729583e-01
-9.507004411181222414e-01,-1.716345613716564467e-01,1.993737454452109148e-01
-7.939015003294326300e-01,2.050243998130059087e-01,-9.884804690369833891e-01
1.196212936238947311e-01,1.662489672513887129e-01,-9.664687729679090067e-01
-9.516844429818305251e-01,2.074096411267056794e-01,-1.218237922775206039e-01
-1.256804996185966194e-01,-2.000571717670399652e-01,-9.596728437443068360e-01
-9.937594863367557041e-01,1.451123697176655014e-01,-7.931801982321318167e-02
1.884873926146570788e-01,1.143480198828974448e-01,-9.901566169255824335e-01
7.406351941318378707e-02,1.722885648221366139e-01,-9.666200614696974780e-01
-1.696837747081905157e-01,-1.507475285869266379e-01,-9.952968294385349246e-01
-3.491487128075217994e-01,1.567875501309095032e-01,-9.985601108192251329e-01
-9.918205013612362286e-01,-1.292718114218055492e-01,7.956035064305422289e-02
-1.842111256272430664e-01,-1.349826689841111538e-01,-9.993441833978176092e-01
-9.953824725475108881e-01,1.419548727403485699e-01,-9.245022740263186822e-02
-9.991115214043229109e-01,-9.473770760925959156e-02,1.168457501023876244e-01
-3.505284241747094187e-01,-1.629262880981112716e-01,-9.970028936763127847e-01
-9.795452641580510988e-01,1.298808431745657188e-01,2.158291138970278578e-01
-9.549825691100465308e-01,1.920875506076165085e-01,1.658120977551447162e-02
-9.737526973784413897e-01,-1.813676885388735283e-01,-9.258823010570438328e-02
-8.471949396778324370e-01,-2.140415211546236041e-01,-9.753900866576491469e-01
-9.351095739004477991e-02,1.512533410895684494e-01,-9.919525199611851640e-01
-8.018867189792746597e-01,-2.063020105301538454e-01,-9.872185046613947135e-01
-6.637379580903601806e-03,1.060040996274480563e-01,-9.998748148223377541e-01
-9.953367916529946013e-01,1.670499482170144656e-01,-3.424008481978536578e-01
-6.371786711462812391e-02,-2.153316884313033475e-01,-9.375922618594341174e-01
2.968610585188813378e-01,1.063655237096345907e-01,-9.794044500050301805e-01
-3.319081075605565534e-01,-2.053325612035443726e-01,-9.680296867237602187e-01
-9.948521168167470119e-01,-2.030132773394855983e-01,-9.653049593913620718e-01
-6.428523515539752431e-02,1.757682914744136404e-01,-9.759250767372248392e-01
-8.755676610234330859e-01,1.915224750352502170e-01,-9.999531269692311097e-01
-1.642193014831927478e-01,2.223780995382882431e-01,-9.371736188022601333e-01
-3.707502677038984062e-01,-2.035966727537454890e-01,-9.719371864517629689e-01
-9.981534268898214490e-01,-1.987210025778564093e-01,-9.082775430073837253e-01
-9.526563117013100435e-01,-1.950205078024518368e-01,1.104743509444872096e-02
-9.742878649705980498e-01,-1.332057999903285550e-01,2.381686441215498107e-01
-6.570196269333044015e-01,-1.917881858095332737e-01,-9.943637467156659637e-01
-9.999847752308768101e-01,1.452208308392988201e-01,-3.560694067079277492e-01
-2.567089477512015661e-01,-1.649274901069599508e-01,-9.931002934346966349e-01
-9.479503940029269105e-01,-1.493653516842723405e-01,2.967989021627983615e-01
-9.569221886596437354e-01,-2.050615678267746489e-01,-1.569770083298316354e-01
-9.975798226062894125e-01,1.980290994977904617e-01,-8.745936009694608160e-01
-9.308246608504542330e-01,2.310712995958192906e-01,-2.444023939477558693e-01
2.383809927156681496e-01,1.229218410317614030e-01,-9.804928806104231676e-01
-9.942236537138491315e-01,1.723643481561534241e-01,-3.733773574915181248e-01
-1.025457038657120457e-01,1.353232861989694946e-01,-9.975557437805284700e-01
7.831700966604504544e-02,-2.054595950920982128e-01,-9.338445840474330906e-01
-9.419815844679849670e-01,-1.951115099428826216e-01,-9.999797940079697689e-01
-5.122852061724236794e-01,-1.864057065231321531e-01,-9.922915762240301918e-01
-9.321726735561962629e-01,-2.015663038224853043e-01,-9.964538220153570380e-01
-9.571322592804731855e-01,-2.011819940436205822e-01,-1.078248192501823910e-01
-5.064360059747620157e-01,2.106244513938853036e-01,-9.712305109519158153e-01
-5.319934619396720077e-01,-1.997704364953244438e-01,-9.834066547508407696e-01
-1.891077380515029382e-01,1.696184884836422491e-01,-9.876645227120746107e-01
-5.734236415446745116e-01,-1.756089098899552559e-01,-9.986598522506485720e-01
-9.929807502792283858e-01,-1.997348967739073222e-01,-7.746767528751424825e-01
-9.605239993410646937e-01,1.547887534351133354e-01,2.264878059815145228e-01
-9.984438035025957614e-01,-1.989220075985803637e-01,-9.223436096644201942e-01
-9.410109390892966719e-01,-1.726821839158816374e-01,2.432714200496006729e-01
-5.510342668360070917e-01,1.809244376538481358e-01,-9.963304468905428424e-01
-9.959548210405042568e-01,-1.180334901181114837e-01,7.205846480195243764e-02
-9.855374422167210158e-01,-2.014412553409137274e-01,-6.174251201110709797e-01
-9.999977939104562896e-01,1.408644316749898540e-01,-3.332293057450990137e-01
-9.694265187598011257e-01,-1.497532343680451072e-01,1.946822536235923717e-01
-9.821630047163364408e-01,-1.496778451833226109e-01,7.555753873796233755e-02
-9.642872240874189593e-01,1.983714420904827413e-01,-9.998387089986079390e-01
1.901775619899370717e-01,1.032197142056887618e-01,-9.940614110631561529e-01
2.044334841059243235e-01,-1.838062751774128811e-01,-9.378822022018266091e-01
-1.332964365066443557e-01,2.201464823132099902e-01,-9.376237715141523266e-01
-8.531407559652168793e-01,1.895114763966254667e-01,-9.999757693645210388e-01
-9.633771005606812654e-01,-1.437584213091934737e-01,2.569434069483702565e-01
-9.997499213390494965e-01,-1.500219409079353028e-01,-3.612102377023396205e-01
-9.450591058191631921e-01,-1.561736105793815055e-01,2.869800325442464217e-01
-9.986087652646268298e-01,1.803549532179005155e-01,-6.331491536024729250e-01
-2.063147661558284440e-02,-1.088836654786926594e-01,-9.998279082922617578e-01
-9.620422048275593108e-01,-2.115558296288836404e-01,-3.448486912590921216e-01
-8.802300751117706490e-01,-1.916583228205175349e-01,-9.999698906685174915e-01
-9.998321205418061464e-01,1.991398334700391626e-01,-9.770100909462835492e-01
1.749326395189356731e-01,1.897508602177457870e-01,-9.369641823624929033e-01
-9.212803678152710063e-01,-2.095346350265430146e-01,1.334425961695879792e-01
-9.413334795763754759e-01,2.161543992815657678e-01,-1.182777030412287544e-01
-9.027965445988287430e-01,2.051505653336029855e-01,-9.911196412252810672e-01
-9.828361417170834446e-01,-1.851632703479850761e-01,-2.849122903902459036e-01
-9.822261899067222801e-01,2.068430116267583330e-01,-6.713762022603608770e-01
-9.820029143122284143e-01,2.086845237629824101e-01,-7.268568073503720584e-01
-9.610501167605826067e-01,-1.696753871470609853e-01,1.412151967349470905e-01
-9.341100896107313867e-01,2.020495889746862783e-01,-9.959508819269564661e-01
-9.874372085177708369e-01,1.924245503832839876e-01,-4.897422824477269954e-01
-7.178437045656717030e-01,1.766781302192983460e-01,-9.999857362698254537e-01
-9.822649455447205469e-01,-1.700926496303439839e-01,-9.983225734921719052e-02
-9.809044455011005637e-01,-1.935928787176504073e-01,-3.703377589604640585e-01
-9.349717348381330062e-01,2.255735939506442467e-01,-1.917031776068145454e-01
2.486656620958145325e-01,1.571544497393917439e-01,-9.541870117174416910e-01
-9.609438497700865112e-01,1.468141571598937656e-01,2.571504798124939484e-01
-6.019198534025875791e-01,-1.699085467782184278e-01,-9.999280058931815374e-01
-6.970429926718768598e-01,2.136409302161210721e-01,-9.745538563160830448e-01
-9.999927868301718981e-01,-1.663794331357156819e-01,-5.979287977337004456e-01
-9.476633085683037194e-01,-2.006527024440034612e-01,-9.978481778915998524e-01
-1.696115919506560044e-01,2.196295107654173684e-01,-9.410767693032324743e-01
-1.327498369592556848e-01,1.479930064217591656e-01,-9.948846524364477473e-01
-9.575755989785342814e-01,-1.593232910639316158e-01,2.220138645943601219e-01
-9.994986587328850147e-01,-1.773744739177830487e-01,-6.460742249402908755e-01
-7.634997968757635256e-01,-1.813538255913930142e-01,-9.999999604726205193e-01
-8.060894469132650064e-01,-2.049477728135882248e-01,-9.889504054279943945e-01
-9.506934117174272725e-01,2.122939115664932430e-01,-1.804622087066156677e-01
-9.996385517568279200e-01,1.949410682903289782e-01,-8.985720368432698058e-01
1.719834107957349811e-01,1.925628308666567090e-01,-9.344563159599150737e-01
-3.767575069568029900e-01,-1.926507477972985161e-01,-9.819824955198988015e-01
-7.684746411216246686e-01,-2.097951867490094324e-01,-9.817714107296603432e-01
-9.980616468686535070e-01,1.381744414425993828e-01,-1.463175730223095217e-01
2.129755375880557633e-01,1.978667345781097708e-01,-9.206683686533674305e-01
-9.780920774531053352e-01,-2.126956735448154445e-01,-8.434795413694718969e-01
-3.186548330490887038e-01,-2.283839279563376623e-01,-9.389651970535443093e-01
-9.537390256775716280e-01,2.043778407854437429e-01,-1.068897886869777381e-01
1.038228125324966999e-01,1.683389108043573668e-01,-9.665978742854085537e-01
-9.673198091457571035e-01,1.955479686614962631e-01,-1.709001183076284125e-01
-4.035493709776279969e-01,1.959271566839433376e-01,-9.806636163916024884e-01
-9.917475984843693304e-01,-1.667416062111399810e-01,-2.440029115719101194e-01
9.398616241290613793e-02,1.509059405301205192e-01,-9.798505433806820042e-01
-9.654869120046445374e-01,-2.045767687541673041e-01,-2.760186831629121151e-01
-9.870619128221086447e-01,1.053268123957873392e-01,2.558943843415666386e-01
-3.357347260775151998e-01,1.740730492039643806e-01,-9.919905974014080474e-01
-2.570515217286389875e-01,-2.212787603709306383e-01,-9.449960803279987553e-01
-2.552948084351248648e-01,1.436773234383741382e-01,-9.992223085246176861e-01
1.730218524845037464e-01,-1.669887061891387470e-01,-9.589767190737265024e-01
-1.739518673656439418e-01,-2.219507885309067730e-01,-9.384496463779463671e-01
-9.847285823607663247e-01,-2.086731050210965943e-01,-9.120427376093067640e-01
-9.388066685363354313e-01,-2.135236958062279866e-01,-5.348949263028679457e-02
-9.449490243486813323e-01,-2.015181919093976814e-01,2.046980930873454341e-02
-9.674338440294528718e-01,-1.876504593910370833e-01,-7.749365563082633024e-02
-9.786398570988370516e-01,-1.707596124840432550e-01,-5.268552897655309764e-02
-6.340608866186350223e-01,-2.000940343759912698e-01,-9.874117106750603945e-01
4.787790859635054908e-02,1.012540140056450433e-01,-9.996411314954413152e-01
-9.914849902709872431e-01,-2.048728080274325736e-01,-9.002444717066543367e-01
-5.443389068778223816e-01,1.741518009390887745e-01,-9.984443871134618398e-01
-2.054606391677203936e-01,-2.188987168828110397e-01,-9.445757807268866380e-01
-1.516594477737506219e-01,1.938838115436529730e-01,-9.674818197542285336e-01
-9.922981349207851132e-01,-8.317951272318913070e-02,2.838112489283650675e-01
2.992633680814755781e-01,1.371494632244525391e-01,-9.575414942852523703e-01
-9.816159915503246403e-01,-2.036059707709182431e-01,-5.726052644861218122e-01
-1.715694300786964055e-01,2.028247836194951859e-01,-9.603113968170893244e-01
-9.999997068834095559e-01,1.988598115737425509e-01,-9.844382231579090758e-01
-9.323176909222059550e-01,-2.226069676751905035e-01,-1.069477933631814981e-01
-9.990391737445635245e-01,1.498298033230085480e-01,-3.036761624287684924e-01
-9.425069917187044455e-01,-1.602888673907486572e-01,2.828189479899831937e-01
-9.789501860319580473e-01,1.286598227135646866e-01,2.256823299722297005e-01
1.589302690408453955e-01,-1.677182219154931264e-01,-9.603456273720784031e-01
-9.913296885293816363e-01,1.677757976964500131e-01,-2.458597859305859945e-01
-9.997999280471540073e-01,1.509918680867035068e-01,-4.739219115495871826e-01
-9.794732517565963859e-01,1.860831496042232303e-01,-2.366402936391652778e-01
-9.975508878433921867e-01,-2.010153326567861720e-01,-9.500665765505563742e-01
-4.272957610078627066e-01,2.183781748503728082e-01,-9.580959566777069725e-01
-9.499020017782703329e-01,1.981373216471502552e-01,-9.996219177701104464e-01
-9.998506611739196304e-01,1.999374278077112876e-01,-9.933386323940771589e-01
-8.977351550670420455e-01,-1.958082230723883210e-01,-9.993467021953630347e-01
-5.129988231204918314e-01,-1.842636226904893482e-01,-9.935042763908609187e-01
-5.327559324122796980e-01,-2.008642659083629267e-01,-9.824612480997209074e-01
4.543276954482533547e-02,1.374300799843664045e-01,-9.905084524483419584e-01
-9.516818566909589494e-01,-1.532147553779580340e-01,2.735144226591790240e-01
-1.293908432266087649e-01,1.953503783273555783e-01,-9.645023806270837108e-01
-5.982375421920325120e-01,-1.616772987847564513e-01,-9.996317485755864540e-01
-9.716547475196857242e-01,1.776692787804989848e-01,-2.773667167953819401e-02
-7.679841288644773112e-02,-1.658832070307870721e-01,-9.834335778336854572e-01
-9.999829786322311787e-01,-1.740489888610168290e-01,-6.639992973828634515e-01
-9.962874633553014947e-01,2.017524352196238269e-01,-9.336981013820292441e-01
-7.045819551893157673e-01,-1.880058392874780493e-01,-9.977120261505573184e-01
-5.697988369493045546e-02,1.421438820115681345e-01,-9.938812672715033880e-01
-9.872091652488836910e-01,8.999149477345103065e-02,2.988936724232862385e-01
2.059342157341750301e-01,1.585773259953322523e-01,-9.609382474388349360e-01
-9.905481810192412473e-01,1.957649425784893094e-01,-6.253422660085836693e-01
-5.792441915800661256e-01,-1.974800422987444959e-01,-9.873696462689341979e-01
1.633628543110685616e-01,1.629676083407085585e-01,-9.636490672377843181e-01
-5.993290930230383839e-01,-1.621808332413569032e-01,-9.996830448349061093e-01
-3.576047165733350353e-01,-1.625517194286619782e-01,-9.973047589527266332e-01
-9.998467564094425386e-01,-9.734877163775168540e-02,5.342477205993034772e-02
-9.940675757337781304e-01,2.023932948557434219e-01,-8.808400439644192836e-01
-1.605203551525423711e-01,1.624816585345265629e-01,-9.900053733554418089e-01
3.054117641315854392e-01,1.068221205942889718e-01,-9.769069017718637893e-01
8.291607718857019194e-02,-1.488118982126126477e-01,-9.820599895452774009e-01
-3.463168061364521044e-01,-1.632944696117698546e-01,-9.967705597487024338e-01
-9.513307985586672011e-01,1.983228021866016988e-01,-9.995785869539862700e-01
-9.594860606366839573e-01,-2.083138706321994160e-01,-2.434802331522329943e-01
-9.174656841458137535e-01,2.144446019026207129e-01,1.188060484292658980e-01
8.305857618570389178e-02,1.983928317271903552e-01,-9.410772083523470943e-01
-9.372223713583622828e-01,-2.037539716877273532e-01,6.671257693456156268e-02
-9.884484583174242278e-01,-1.431398965713405191e-01,3.692090030152872515e-02
-7.390749312113638059e-01,-2.012250506176105347e-01,-9.904146988439741506e-01
7.140117298058723527e-02,1.225359558865877219e-01,-9.946502095059046589e-01
-2.240796873689195889e-01,-1.563170894280572210e-01,-9.952805953820506035e-01
-1.791881615115034077e-01,-1.509696785792634666e-01,-9.955561043431967461e-01
-9.145642844130240645e-01,-2.173287818726549192e-01,1.137753405369241744e-01
-9.431352558312964263e-01,1.968639056948917609e-01,7.959759005147049038e-02
-9.836983092996149924e-01,-1.246208266301249701e-01,2.055458132398133575e-01
-4.375279405064032012e-01,-2.144406791625463882e-01,-9.635156222477868626e-01
-9.595933697230227821e-01,2.025271713472471813e-01,-9.957530857009829761e-01
4.532035687132340840e-03,-1.277223669247998794e-01,-9.959918702885738329e-01
-9.320457116989087076e-01,-2.032485631736010712e-01,-9.943393358877545829e-01
-9.960356062481684480e-01,1.908434021903255839e-01,-6.919092006963259989e-01
-9.854532897395498203e-01,2.062157183104149638e-01,-7.426600269365319917e-01
-7.027082570986720178e-03,2.209876753051176479e-01,-9.249763729441651261e-01
-9.553957475653902520e-01,-2.238931498068181813e-01,-5.549970478293644316e-01
-9.889403488981426404e-01,-1.978369496486107604e-01,-6.250678011494146258e-01
-9.999015500820301883e-01,-1.857971846660956272e-01,-7.923737183473629209e-01
-9.971017643852635448e-01,-1.987097842049398988e-01,-8.740421756921136209e-01
-9.997955137059219011e-01,1.994942508390749047e-01,-9.820142328992155223e-01
-9.834497897211974538e-01,-1.525637620375559500e-01,3.768371390294378287e-02
-9.386788384758634196e-01,1.974852164177496316e-01,1.089426500153340971e-01
2.308190296093923788e-01,1.082768602972774552e-01,-9.887060848402202673e-01
-9.711696845713255755e-01,2.125767971520031718e-01,-5.589777340508357284e-01
-4.641040725199400141e-01,-2.194448339522282465e-01,-9.583777983036871895e-01
-9.917277035727338763e-01,-1.780229367249964723e-01,-3.795139954476030031e-01
7.546767183507530063e-02,-1.689544859079976646e-01,-9.691062424869699710e-01
1.206345921430671542e-01,2.081985935015460143e-01,-9.248360010563559941e-01
-4.035929824903932150e-01,1.986209803744016789e-01,-9.783394830414188226e-01
-9.949541414613961576e-01,-1.189979286163431738e-01,8.782562258821946521e-02
-9.879161371884294107e-01,1.329774964571883711e-01,1.138867242198970953e-01
-2.569984891971404117e-01,-1.693521175660229749e-01,-9.910376212039601063e-01
-3.619701134267019338e-01,1.604848251453292463e-01,-9.979768564534793329e-01
-1.262396591493960551e-01,-2.168130918152638698e-01,-9.411839829712512762e-01
-9.412237347052855307e-01,-2.227813579558438617e-01,-2.289474421617336830e-01
1.935236828410955567e-01,1.892878080109845484e-01,-9.341622729184028140e-01
-8.930564149163470189e-01,-1.904710087211947123e-01,-9.999177425455335610e-01
-6.714613068645339800e-01,2.016845257528714352e-01,-9.874606673419376035e-01
-8.393384088234689955e-01,2.131391961859037121e-01,-9.772939119536613317e-01
-9.977300566296002371e-01,1.658461611373467370e-01,-4.120073790608816955e-01
-9.870535366503030428e-01,1.726321913957937770e-01,-2.108247648643035710e-01
-7.051099151566224688e-01,-1.834405181002960461e-01,-9.991813736850438943e-01
1.268760504391071020e-01,1.033872563651812015e-01,-9.973120192502329395e-01
-6.775607863082477866e-02,-2.221674071841636122e-01,-9.294370669073969138e-01
1.909839055053379475e-01,-1.818461926696848252e-01,-9.423382679477027013e-01
-9.408707471885131568e-01,-1.943030624097968895e-01,1.177628225559377295e-01
-9.646120466852887709e-01,1.356990448930923687e-01,2.786069436525104859e-01
-9.678365947042590900e-01,-1.560161879422086173e-01,1.724474130515520898e-01
-4.368732497899450173e-01,-2.044998481919194644e-01,-9.744712241215930382e-01
-4.665029766329240601e-01,1.808404635411604566e-01,-9.935927444061246616e-01
-1.183181572241789326e-01,-2.134841063243371195e-01,-9.445164244369861350e-01
1.791454520204645018e-01,-1.030511102138217394e-01,-9.948193367825280964e-01
-3.353509897876624235e-01,-1.505624144038170131e-01,-9.994036637563553649e-01
-9.904695368700928704e-01,-1.687182290638712390e-01,-2.370877950349552510e-01
-7.261893246937445312e-02,2.265007350671004449e-01,-9.241769764566490908e-01
-9.925735215038513637e-01,1.453583138867835522e-01,-5.521938737175624556e-02
-9.873567557172888698e-01,-1.483133501389052311e-01,1.439940470581024812e-02
-9.949865330742982961e-01,2.025873627020600143e-01,-9.216016262676290927e-01
-5.329443997636895691e-01,1.909999013894116970e-01,-9.902402237248991712e-01
-9.751539078335347277e-01,-1.864651858475701030e-01,-1.713603127451254204e-01
-9.997384153705669574e-01,-1.996236825881362309e-01,-9.824417740166635493e-01
-2.619994888575484238e-01,1.581054742868548413e-01,-9.959280557128064038e-01
-1.551905250034739669e-01,1.357468518119433476e-01,-9.987293306421960448e-01
-6.928066519291402603e-01,-1.894850916413535202e-01,-9.967376936473524296e-01
-3.687253597055601961e-01,-1.991448540099035602e-01,-9.760538910800325985e-01
1.047852588467952373e-01,2.176572688545981293e-01,-9.154645964686269899e-01
-1.387624089399662752e-01,-1.539901357342269295e-01,-9.928543688921798172e-01
-9.874012535268048563e-01,-1.101760991542644064e-01,2.350494737926096533e-01
2.603404036944132471e-01,1.479168254345326616e-01,-9.593625595678282325e-01
-9.695194769143946623e-01,1.448037741865029204e-01,2.182188447781505669e-01
-2.369305461181077099e-01,2.327425756284329239e-01,-9.279294007933739374e-01
-3.244807733542380834e-01,1.395245584016238105e-01,-9.999933418186782719e-01
-9.684304247724758730e-01,-2.155256004722482244e-01,-5.854734700139820891e-01
-8.323315993029225535e-01,-1.953752181875587635e-01,-9.978606336109220321e-01
-1.730802698923410432e-01,2.116511366830080565e-01,-9.508886284695109437e-01
1.390225926326853489e-01,1.566174581273931388e-01,-9.714926684851993288e-01
-9.655936023271709523e-01,-2.155222632985080988e-01,-5.129731624842539528e-01
-9.975768764678969447e-01,-1.484983050031317697e-01,-2.220344983218066615e-01
-1.585481653862038653e-01,2.299216684280882550e-01,-9.265969514835825649e-01
-9.999935093260523544e-01,1.193757224558931185e-01,-1.501362036129324506e-01
-9.916771685700732641e-01,1.410438809175362795e-01,-2.355150930102412055e-03
-9.884475792500994062e-01,-8.840043875965974962e-02,2.959590626612103037e-01
-9.705264238830015877e-01,2.138682127436815072e-01,-5.837364353638059278e-01
-4.536724319861573651e-01,2.115927195035187669e-01,-9.676637605140085974e-01
-2.811584259510867545e-01,-1.603863156740746865e-01,-9.957654618066467123e-01
-4.325206857958322493e-01,-2.231868170822416397e-01,-9.518685654833428655e-01
-9.995769326635123297e-01,-1.603885319601587867e-01,-5.890593284507597005e-01
-9.285265275072452917e-01,-2.042801155225636434e-01,1.268068860831570444e-01
-9.971990234798190356e-01,-1.988382058791585694e-01,-8.800179688643255949e-01
-9.994837864023631280e-01,1.742933311040935074e-01,-6.064828030298017314e-01
-9.403043540068389827e-01,-1.618425160525266415e-01,2.850232846518006014e-01
1.317638178994129383e-01,1.494975914832741282e-01,-9.771255613858605971e-01
-9.822581722514356350e-02,1.343173531806205467e-01,-9.976686848443890865e-01
-9.948729230435220394e-01,-1.376739346260706931e-01,-4.382640100949408701e-02
-9.997719475253639132e-01,-1.775195903497281957e-01,-7.572884235472319148e-01
2.047427351571211585e-01,1.754354507731266111e-01,-9.461748219035701624e-01
-9.994279362505982256e-01,1.392456535724220235e-01,-2.284358327458542171e-01
-9.700147160579807304e-01,-1.785961335600964039e-01,-1.680245381021938655e-02
-5.333299114420539944e-01,1.594375189526422432e-01,-9.999655149166144508e-01
-7.032361537624246539e-01,1.950502465977157485e-01,-9.939237765523465384e-01
-9.981762532169029534e-01,-9.520559572562203865e-02,1.474749989793007199e-01
-9.999032543540086193e-01,-1.353635738072855865e-01,-2.432320399749866580e-01
-8.100800356409063596e-01,1.991278647128025270e-01,-9.946919329673403753e-01
-9.693664468980940363e-01,-1.368415801405736820e-01,2.524217826227208583e-01
-9.916317649205489415e-01,1.110549712104811348e-01,1.862400067046425800e-01
-3.601061653741817192e-01,2.304130864707274462e-01,-9.380876309107868405e-01
-9.946998444844911136e-01,1.918078866340013899e-01,-6.672326450020648059e-01
1.801312843167015565e-01,-1.403219659446084400e-01,-9.776404936151199543e-01
-9.985545330947296350e-01,1.685877296046149887e-01,-4.815487204901748308e-01
-9.990442422618552865e-01,-1.415366526173148509e-01,-2.242041024256747894e-01
-2.740763027551770259e-01,1.574795623917186749e-01,-9.965049089910956726e-01
-9.449890809489053245e-01,1.934543567107835926e-01,9.325161751982791181e-02
-9.793159887723636992e-01,-1.602232476038033537e-01,3.088673302526290243e-02
-7.739126613511140285e-01,2.106532413472963494e-01,-9.807067526503526755e-01
-9.980686089487138535e-01,1.972519228858966578e-01,-8.750694132050171881e-01
9.449802518127237150e-02,1.277997235704297907e-01,-9.914923348582548313e-01
-7.235388940301210603e-01,1.948624973159089890e-01,-9.947453592633154207e-01
2.421834943510838833e-01,1.004089446958522647e-01,-9.907261421877717744e-01
8.650227382116115749e-02,-9.847711511307077892e-02,-9.992957308078586065e-01
-9.993581880279428509e-01,-2.002954961997315264e-01,-9.878555824246352257e-01
-2.642443867031649685e-01,1.351926585447893459e-01,-9.999886527638390810e-01
-9.625312220803698970e-01,-2.037038220168445601e-01,-2.162907722714715320e-01
-9.965707918210180427e-01,1.046218214330589813e-01,1.376812711080643847e-01
-9.981062646943216210e-01,-1.051736984329775249e-01,9.390081536812489027e-02
-9.935733729851826679e-01,2.038162831286511878e-01,-9.412697199652031443e-01
-9.983074730815244546e-01,-8.205744375391832435e-02,2.061718253058673067e-01
-3.905766306781907060e-01,-1.668822259554832987e-01,-9.968590633347075292e-01
1.401151152447266401e-01,-9.759258242837198782e-02,-9.979950638111887429e-01
2.261019515797866308e-01,9.723714927533588792e-02,-9.933411122116773129e-01
-9.583768189547172689e-01,-2.077152464477077798e-01,-2.171133887688099229e-01
-9.992135350447881592e-01,1.436462420275494978e-01,-2.544275820916142017e-01
-5.922716163148833424e-02,-1.972256961255711705e-01,-9.570391036827020637e-01
-6.585802583462532223e-01,1.673703522969671731e-01,-9.996225257605330095e-01
-9.811525158346111608e-01,1.730322991622754714e-01,-1.125230585655198068e-01
-1.746437640023263960e-01,1.615028976318637621e-01,-9.911471545108853087e-01
-9.997976185556299855e-01,1.326944300268697585e-01,-3.019588355361768617e-01
1.130762419084350157e-01,-1.179513746317488732e-01,-9.939763060531965344e-01
2.437769665661002616e-01,-1.643715432851143854e-01,-9.488138454857323323e-01
-9.864875448391381418e-01,-1.394132249626707232e-01,9.137033733093646859e-02
1.128263041715900084e-01,-1.927561723636052049e-01,-9.431610094404881961e-01
-1.084864685275507279e-01,2.154840537927995570e-01,-9.413293545653864669e-01
-9.761044214891477777e-01,1.838943320686874383e-01,-1.550314140638098248e-01
-1.287740196975488693e-01,1.409864709357155910e-01,-9.969013155784908209e-01
1.782364650155574548e-01,-1.302749940393881367e-01,-9.836370685228597033e-01
-9.988488899838805501e-01,1.068341218493735756e-01,5.618986920730506540e-02
-2.120449913194237812e-01,-2.218582477502657468e-01,-9.412808521810074325e-01
-9.854982586863646477e-01,1.786689889772821171e-01,-2.521202370861347353e-01
6.525506942161585222e-02,1.601963847136262942e-01,-9.764242003080696453e-01
-4.433737493739441371e-01,-2.234356399682193572e-01,-9.519920045078335002e-01
-9.674826086698665728e-01,1.254889171316251328e-01,2.958667029830497341e-01
-9.904105938914081753e-01,1.380648483130682003e-01,4.249644242972028252e-02
1.473328085182656899e-01,-1.990310554388138309e-01,-9.313639940611579959e-01
-9.245500099272009331e-01,2.193040203777485431e-01,1.665032205865601966e-02
-9.448944258883251734e-01,-2.019205093516261984e-01,1.691378743257376804e-02
-2.900800263671464707e-01,1.962568493282093041e-01,-9.742634587662067913e-01
-8.635812710792071245e-01,-2.069508863535942655e-01,-9.878453943712099949e-01
1.508785622819184269e-01,1.513277844968909935e-01,-9.738454955098323484e-01
-1.526514342557133697e-01,-2.260696003585928038e-01,-9.314308348713414842e-01
-8.760880500092139700e-01,1.929601530341946702e-01,-9.997513392697670032e-01
3.033015613474263628e-01,9.081935235902482972e-02,-9.859183325911516915e-01
1.227612329344127673e-01,1.442506710774233980e-01,-9.812269760995787626e-01
-9.774500911070825859e-01,2.121735956122636768e-01,-7.284618866234612300e-01
-9.923286692507025109e-01,1.258103962940317899e-01,9.339691473037192715e-02
1.054559659979892317e-01,1.597538033172232197e-01,-9.728795053333876286e-01
-9.998444925486191792e-01,1.968516913928866074e-01,-9.406180420850702717e-01
1.922530237523849550e-01,-1.363885180905971550e-01,-9.786142109570818981e-01
-9.999678394382882640e-01,-1.127774388300646358e-01,-7.235644524952611345e-02
-9.890054636370165797e-01,-1.759645830413959500e-01,-2.902843701261134113e-01
-8.917109432340728503e-01,2.063440179746374170e-01,-9.891586845803789219e-01
-7.173573838900138000e-02,-1.208866610008663134e-01,-9.993937348740020710e-01
-9.995813897603065268e-01,1.998765051870208254e-01,-9.826616180445687521e-01
-6.790833939521045970e-01,-1.940605385985758602e-01,-9.937247704301991336e-01
-9.325849984701601869e-01,2.215915005800732640e-01,-9.478016695360713673e-02
-8.554185852414870617e-01,-1.878133914252791969e-01,-9.999638084025807006e-01
-9.914294952546097717e-01,-1.996168575620631547e-01,-9.999599399416685408e-01
2.443615577576063735e-01,1.819962047567600383e-01,-9.311839892503881444e-01
-9.999517593405549132e-01,-1.927052598529878091e-01,-8.913551997431299334e-01
-9.925232073869346694e-01,2.040055786994463549e-01,-8.934813590991627086e-01
-3.029767476308874441e-01,-1.548244350325967966e-01,-9.980090444078335565e-01
-9.880260542894604425e-01,2.069357433523848488e-01,-9.224542802028925514e-01
9.341843387072890081e-02,1.556810510272148562e-01,-9.768577589099544101e-01
-9.908950560152716136e-01,1.573681820961363442e-01,-1.282906833468194785e-01
-9.384652096455132764e-01,1.647736291838375333e-01,2.818275371980263344e-01
1.162697400322665331e-01,-1.851896433159955224e-01,-9.502816724275593430e-01
-1.490744384028065417e-01,1.965966461906270002e-01,-9.647868176485068226e-01
2.296679614589853813e-01,-1.035312637312391093e-01,-9.907635648438611886e-01
1.222200026781083970e-01,-1.214229090556581125e-01,-9.922105821090198008e-01
-9.993542356281074346e-01,-1.978262844479325988e-01,-9.330599257499040400e-01
-9.622320071875964942e-01,2.189006256571335296e-01,-5.411922727638067698e-01
-9.763832939584686788e-01,1.582657774360469727e-01,8.003228479632173986e-02
1.529516737590164155e-03,-1.010599119771065091e-01,-9.999917959158430847e-01
-5.632491889850292921e-01,2.078545054253939650e-01,-9.768156421750288088e-01
-9.985879962589543357e-01,1.924219139880249951e-01,-8.091352313574753374e-01
1.637368020262885970e-01,-1.457411184897025036e-01,-9.760962030368761644e-01
-9.916058863855062855e-01,-2.048105104286913614e-01,-9.020910210896759818e-01
-9.613844091275768333e-01,-2.011686176437385010e-01,-1.633095560373454269e-01
-9.828134290792930328e-01,-1.946497363062001940e-01,-4.259959780582113220e-01
-9.861667060925820572e-01,1.785281845127510980e-01,-2.634137436209214034e-01
-9.503818563768461347e-01,-1.854848948849900925e-01,1.132986384477385755e-01
-9.686261383877909914e-01,1.855410941568991223e-01,-6.974655318080325017e-02
-9.603312854367991314e-01,-2.107511384093161411e-01,-2.998076498222251862e-01
-9.640353508388086468e-01,-2.171514201370808861e-01,-5.265263863418954138e-01
-9.939390412412145714e-01,-1.031468266414932167e-01,1.923243969405601383e-01
-9.822432566878447346e-01,-1.381276298434045424e-01,1.490945257766693732e-01
-9.998353004504432207e-01,-1.462102104663115520e-01,-3.341358328785442033e-01
-9.968701202320563448e-01,1.414778801961840138e-01,-1.320807889732705798e-01
-9.916370968017905740e-01,-2.009219023518229452e-01,-9.983455872531116215e-01
-8.383809022414164813e-01,1.895206883639801720e-01,-9.998725289142499362e-01
-9.712734979359247678e-01,-2.119038921437308431e-01,-5.418131335935709725e-01
-9.820526289923372509e-01,-1.592050392161641348e-01,3.397556193504902566e-03
-9.735947172292406249e-01,2.025601503461198494e-01,-3.827471186240034573e-01
-9.404399351986931777e-01,1.814558116294742174e-01,2.036285272853330941e-01
-9.935446548175081993e-01,1.612020210028020095e-01,-2.277907277830972799e-01
-9.666373071446727749e-01,1.748897931310473552e-01,5.305144300262387702e-02
-9.999995004826438549e-01,1.796743247510070862e-01,-7.408239190318510747e-01
-5.893264896885954673e-01,-1.609578306573437034e-01,-9.996502899659429620e-01
9.315232230795778001e-02,1.507961294526998230e-01,-9.799922423653646408e-01
-9.999989065580238146e-01,1.411792945690708567e-01,-3.346710695836985217e-01
-9.986412041266656825e-01,1.853864431882412678e-01,-7.046164827311174328e-01
-3.101263682472326089e-01,-1.717260024605129498e-01,-9.921101036023537434e-01
-9.744920906497087643e-01,1.805240863166837073e-01,-9.376255367499708449e-02
-9.995997154779817651e-01,1.012163858740131595e-01,5.120383616664181403e-02
-9.974400134725077693e-01,-1.318343537775065188e-01,-6.986349023165927541e-02
-5.102239151334647671e-01,2.079056670527184014e-01,-9.744314753919711691e-01
-9.695578427162871993e-01,2.136295545426669662e-01,-5.512701008574962813e-01
-8.820350793551954283e-01,1.961012368848662479e-01,-9.988524720376865673e-01
-7.544313867072006685e-01,2.145122217270925002e-01,-9.745121804877718841e-01
-1.065852232568111901e-01,-1.827564221262615307e-01,-9.736720350257385137e-01
-9.901989833351628745e-01,-9.085719663648583744e-02,2.782851179326220059e-01
-5.597254160112631327e-01,-1.932819621462643633e-01,-9.897495995441724093e-01
-9.646935036464957536e-01,1.759558289530338548e-01,6.362614706955027621e-02
-6.515152617602399943e-01,-2.168407634140796514e-01,-9.687223703010986453e-01
1.445445669742371209e-01,-1.796956592038743139e-01,-9.516906849289878956e-01
-9.956871518584584635e-01,1.863308419035298868e-01,-6.088006283101912164e-01
3.040481395583634061e-01,-1.285776010112580359e-01,-9.626176796936829483e-01
-8.074836532863438610e-01,-1.857665442220512997e-01,-9.999848339780745832e-01
-4.216876450384732244e-02,1.144877854697776698e-01,-9.996392279273323966e-01
-9.997312106495178652e-01,2.000195803023920860e-01,-9.999672921947740933e-01
-9.653797655043234727e-01,-2.179979363720951913e-01,-5.954613162920832092e-01
-9.999941804788435862e-01,-1.901621955206351799e-01,-8.670477426205314142e-01
4.827088376137878001e-02,-1.820130418194626509e-01,-9.610779777302590476e-01
-9.940966257133051487e-01,-2.033939270899328688e-01,-9.646712942041011374e-01
-2.288530752050476069e-01,-1.601728328006960522e-01,-9.940047008449454102e-01
-9.692615682261713772e-01,1.274045443777120923e-01,2.840566075239419064e-01
-9.706964982764022531e-01,2.059438789996652641e-01,-3.919180348147458526e-01
-9.999863978894482086e-01,1.533305234152844143e-01,-4.628329978152887492e-01
-9.948498951554678449e-01,9.177431109309930335e-02,2.284659343495247796e-01
1.212753046541665825e-01,1.997262473834355845e-01,-9.345028759383122718e-01
-9.904838046007400365e-01,-1.862804293663679056e-01,-4.645078920112679643e-01
-9.379072756827145918e-01,-2.307185859769624869e-01,-3.660629382242165386e-01
8.862702166435854068e-02,1.223681330267534229e-01,-9.938281231573197205e-01
-6.699166900677060443e-01,-1.843730470566998791e-01,-9.981882287642558360e-01
-7.284032287789119486e-01,-1.755869950355032350e-01,-9.998497628901259482e-01
-9.987021025512522465e-01,9.554131024219381096e-02,1.286773492901476246e-01
-9.693566784507002820e-01,-1.204870703270128907e-01,3.013342346604181987e-01
-1.269473760883851332e-01,-1.856094617124001145e-01,-9.728327731769144116e-01
-9.999999837062462094e-01,-1.501849575560797456e-01,-4.189558478503346839e-01
-2.916553116358173714e-01,-2.276015941272767629e-01,-9.385782849516894899e-01
2.379918596529162489e-01,1.830040739488369983e-01,-9.316378975906722815e-01
-9.934122688291744385e-01,-1.796034798900677520e-01,-4.445161784201920874e-01
-9.500741175881142198e-01,-1.639771325681760317e-01,2.395864009614951939e-01
-1.363189646022643364e-01,1.771226247689532407e-01,-9.798787080862406684e-01
-9.790757918573806950e-01,2.087096335901961197e-01,-6.436671663853126280e-01
-7.553347823163268915e-01,1.782176623068496557e-01,-9.998743832161381961e-01
-2.572042130451346331e-01,-2.260827889008218960e-01,-9.386275250566755712e-01
-4.963142599153833601e-01,2.097885964870409570e-01,-9.717203696626138809e-01
-9.643232941171007155e-01,-2.019091750458296142e-01,-9.967528362840746281e-01
-9.856953218819272111e-01,1.512172481975966321e-01,1.661975809218363409e-02
1.715301292388826671e-01,1.058664054285756162e-01,-9.944331815841530586e-01
-2.686901676356751034e-01,-1.280553778855435532e-01,-9.997301855265509074e-01
-9.957481115383729486e-01,1.392525735463647774e-01,-7.941490716998067523e-02
-9.457788039754708720e-01,1.865500277423093323e-01,1.394596856529375373e-01
-9.949845997030102307e-01,-2.002193623980605963e-01,-9.996158349324706371e-01
-9.811225789475908066e-01,-2.109298410417758118e-01,-8.213114778787951042e-01
-9.818174884090932197e-01,-2.101178025103117575e-01,-7.894349036592571700e-01
-9.997719111094490740e-01,1.946572587059682835e-01,-9.025437017607665924e-01
1.570435591298251499e-01,-1.464008100416528402e-01,-9.764237674265016098e-01
-9.939576930851908854e-01,9.823908835801464789e-02,2.139970503376558142e-01
-9.410270243916041277e-01,1.828819976146027759e-01,1.924965103246119025e-01
-8.530636782316856070e-01,1.920663756838258962e-01,-9.996031556434212817e-01
-2.395216017836171440e-01,-2.041847358769715015e-01,-9.635767852660354071e-01
-2.012908929431271865e-01,-2.250114203566229154e-01,-9.363974090432458652e-01
1.004284452424468732e-01,2.164539704714447677e-01,-9.176210412280675355e-01
-9.067959728242023232e-01,-2.016609271481362153e-01,-9.956171300948621905e-01
2.238128657483591244e-01,1.693055015431248478e-01,-9.483786214422518235e-01
-9.591476170808361790e-01,2.151370175266116291e-01,-3.683998751323311893e-01
-9.766208174434946043e-01,-1.668192945751965084e-01,9.582675020207709338e-03
-9.875179554678852334e-01,-1.994347258893313102e-01,-6.225542325379536113e-01
-9.928758926931338102e-01,-1.570747242241665731e-01,-1.691892001250516753e-01
-9.995461956402311721e-01,1.926940227972038233e-01,-8.589550288527556532e-01
-9.999462017007657577e-01,1.904313092181046940e-01,-8.598833232570410878e-01
-9.765553141576457374e-01,1.618604622394030912e-01,5.097692312332702258e-02
-9.726054957879770591e-01,2.038945406048771058e-01,-3.887799642376903453e-01
-2.327669134950639540e-01,-1.498306370285656941e-01,-9.975190153477473398e-01
8.700881224533585367e-02,2.114697213385476893e-01,-9.256401536018893372e-01
2.668702148342534386e-01,-1.230192099664475514e-01,-9.758120984010194565e-01
-8.983939936357679956e-01,-2.057968511423872160e-01,-9.900828669343509914e-01
-9.941536958913773647e-01,1.601741707402211112e-01,-2.328000302510839781e-01
-9.967687813182033452e-01,1.334976481790102198e-01,-6.161418186104883343e-02
-9.818318967912547102e-01,1.097690567231397463e-01,2.758084754105671887e-01
-6.367837654648851320e-01,1.752604357817957315e-01,-9.997019631634684877e-01
-9.669599840875567898e-01,2.175117012106810854e-01,-6.239236983456691865e-01
-9.417910401752817018e-01,2.249732384711577993e-01,-2.844777101895279436e-01
1.716097359145511980e-01,-1.270570274403236555e-01,-9.859325472311143423e-01
2.410678790839737573e-01,-1.521916707850970996e-01,-9.599087185073655881e-01
-5.342067169027726603e-01,-2.142174056010350824e-01,-9.681262193013000505e-01
-9.968058228467054915e-01,-9.933046038785964260e-02,1.604383979088679357e-01
-1.256342957243236080e-01,1.402663673786177512e-01,-9.969974542619539637e-01
-9.997845880655247264e-01,1.871778481226078483e-01,-8.651703028993416034e-01
-8.424946656052538785e-01,-2.143958626273840817e-01,-9.747740742829567040e-01
-8.999279000977125076e-01,-2.104543254226882709e-01,-9.813153480255133454e-01
-4.832909947120904715e-01,-1.670199108105805408e-01,-9.989338834577481396e-01
-9.504036637267837540e-01,-2.117610445044603162e-01,-1.682269383188366163e-01
-3.667990136413661340e-01,-2.171076251084304021e-01,-9.566494805379116562e-01
-7.123550646153768984e-01,1.902691051269940203e-01,-9.969380054520370349e-01
-1.533382560768502545e-01,-1.928110049278864979e-01,-9.685653640838273182e-01
-2.017228124664950384e-01,1.750209046393129686e-01,-9.851262197522442365e-01
-9.652296232644159701e-01,-2.022875290085597300e-01,-2.355174434090872015e-01
-9.675849244412724204e-01,-2.026495790879379033e-01,-2.786232526845934254e-01
-2.129016964527070677e-01,-1.339094004305013685e-01,-9.997810089114917975e-01
-9.432210347487320901e-01,-2.196115134919528478e-01,-1.988564718367347162e-01
-8.359977084109383449e-01,1.935429658057090663e-01,-9.987929556187925551e-01
-9.776700967783754637e-01,1.985163313808202545e-01,-9.999912602211060708e-01
-9.948469949422272807e-01,1.981267148147294321e-01,-7.922330781008495304e-01
-9.436780674475171438e-01,2.287880522996952326e-01,-4.323995403662070913e-01
6.331860740611316984e-02,-1.597550770771615225e-01,-9.768936210129278708e-01
-5.061807734796617275e-01,-2.172080600898491642e-01,-9.631322106514437209e-01
-9.677059003900372325e-01,-1.955924113797229413e-01,-1.770529126067608150e-01
-9.653469663371821996e-01,-1.571006597513348035e-01,1.845856615465135686e-01
-9.508281418248372141e-01,2.222613519156728668e-01,-3.833720295700224767e-01
-9.992787404240441873e-01,-1.116854487997627210e-01,2.585243934213998784e-03
-5.591015488216020124e-01,1.865897398080882397e-01,-9.938985646319209444e-01
-5.120040590078125398e-01,-1.700923866672295892e-01,-9.987942162544546365e-01
-9.985659823009247482e-01,-2.008457533277009377e-01,-9.841005910175621985e-01
-9.799636554450970038e-01,-2.008595839472734346e-01,-9.984829772813720306e-01
-8.202887916827973358e-01,2.018455828006127106e-01,-9.926784912177448739e-01
8.125894172250069936e-02,1.641578329159736338e-01,-9.721348680496290084e-01
-9.999960217988678179e-01,1.022279790720133086e-01,-2.109807117826734135e-02
-9.721715680526158421e-01,1.723101924119729844e-01,1.515687087831141255e-02
-9.761047666979313364e-01,-1.470839760191889889e-01,1.559325024911901725e-01
2.003608002722983006e-01,1.137960017376604682e-01,-9.893460742105758543e-01
-9.892603573341649525e-01,1.540325815362102446e-01,-6.557109081053702493e-02
-3.994171245332979181e-01,1.559840225918394108e-01,-9.995065909829238260e-01
-9.785476920540095991e-01,1.027672235583780846e-01,3.079171820308621577e-01
-9.956103260404548516e-01,-1.578802106886992851e-01,-2.499000585510865458e-01
-9.927807092228144725e-01,-8.766963433452423793e-02,2.665482932138796279e-01
-3.762817123308822564e-01,-1.725158439728939896e-01,-9.942603551347412028e-01
-9.949104921228721921e-01,2.004870137158196730e-01,-9.991567858807207658e-01
-3.889399314022879972e-01,2.188637673429267849e-01,-9.555840671261406349e-01
-6.317464335980027546e-01,-1.903773115967862806e-01,-9.943169108745539830e-01
-9.474626620530216536e-01,1.735991136618508790e-01,2.072975111394523839e-01
-6.906282790395146254e-01,-2.003725167881452718e-01,-9.893711174713398782e-01
-9.958678405065184425e-01,-1.482573699446115834e-01,-1.626027033293633295e-01
1.608022327976625920e-01,1.427505082792497326e-01,-9.783159849586755552e-01
2.540999228529075005e-01,1.280675088103515602e-01,-9.749413230241448236e-01
-2.679862976720586154e-01,1.679226422861033186e-01,-9.921993556709616247e-01
1.415075218943662172e-02,1.618811317775872283e-01,-9.795662822212946041e-01
-9.987798420694752322e-01,-1.956111203809355326e-01,-8.705355046355870430e-01
-6.219345701807470483e-01,-1.846047192551836247e-01,-9.968547118207408131e-01
-9.919197149798507640e-01,-1.561629683461629448e-01,-1.385396092429751480e-01
-9.922139063674646486e-01,2.017663472118633727e-01,-8.043107747270488161e-01
-9.985726062503258449e-01,1.851608040918695242e-01,-6.982043134680071539e-01
-9.807914137479293304e-01,-1.716082628319686165e-01,-9.235404075667597024e-02
-9.542687003037898519e-01,2.001539680906025964e-01,-9.985023281174922882e-01
-6.200633709499726587e-01,-1.823927868216471682e-01,-9.976590535685589956e-01
-9.856531568020417966e-01,1.047109631819815867e-01,2.680534322773313605e-01
-9.850141545629541584e-01,-2.084594495055307473e-01,-8.287619029445055796e-01
-9.935770396214587130e-01,1.784755539733404728e-01,-4.338070913332050527e-01
-9.835042660885080501e-01,2.062991702913932190e-01,-6.897816857994090167e-01
5.995427606027714518e-02,-1.902744165497297635e-01,-9.521411344172178159e-01
-9.851168585210408057e-01,1.057147901309152260e-01,2.684087040568412519e-01
7.649394202898673889e-02,1.507316950409811618e-01,-9.814648273807714540e-01
-9.548854753065766365e-01,1.541607532248019385e-01,2.571431563325565772e-01
8.339632839528121622e-02,-1.320202517941818643e-01,-9.904641896083368202e-01
-7.380314505648633006e-01,-1.945587429745724295e-01,-9.954195697459510273e-01
-9.997749302080852773e-01,-1.568319423890250919e-01,-4.344483434904360397e-01
-9.955300717186337245e-01,-1.378522895468283771e-01,-6.194312473888485826e-02
-1.170976289195302389e-02,-1.746484958113683206e-01,-9.726706747506150830e-01
2.317371078994623357e-01,1.778513020261209832e-01,-9.384206816331283063e-01
1.362663067740790268e-01,-1.278596292470238760e-01,-9.885623048846953198e-01
-9.861806944942628217e-01,-1.496196922101081794e-01,2.200449366852108568e-02
5.619731146055739757e-02,1.557090342486973089e-01,-9.801181854178379060e-01
5.216567337867616949e-02,2.029293245212751007e-01,-9.398768634352449025e-01
-8.997101530890609933e-01,-2.047692880920054526e-01,-9.916230639262207935e-01
1.095609629713503175e-01,-1.905875760963595678e-01,-9.458179353124950284e-01
-5.917503199233873357e-01,1.862275673645616969e-01,-9.951917735899846740e-01
-9.937485940647478033e-01,-2.032512998954913996e-01,-9.046968593396983449e-01
1.456976474250684106e-01,-1.499360335669948086e-01,-9.753617512562559044e-01
-9.474263460744151155e-01,-2.098180180392238414e-01,-1.024963586844419572e-01
-9.089823487097806742e-01,2.090897438217624860e-01,-9.839439675484996650e-01
-9.278021100013185141e-01,1.961954955738300921e-01,-9.998023000536651050e-01
-2.165077329929581129e-01,2.324165821536730014e-01,-9.271038063454249967e-01
-9.950542796273439405e-01,-1.358060562677860794e-01,-3.337411835358450318e-02
-9.889699429261601393e-01,-1.471854833219169434e-01,-2.703768298836006778e-03
-9.759986489992442671e-01,-1.243181024954771452e-01,2.614528216258753535e-01
-9.526711207089005873e-01,1.465186618882241554e-01,2.902250198929114955e-01
-1.439070929750853045e-01,1.545973668684774704e-01,-9.928262681368853482e-01
-5.035454177219624849e-01,-2.015651133191419531e-01,-9.804980944891208416e-01
-6.861064894047068652e-01,-1.716991410846228083e-01,-9.998418078027728750e-01
-9.939746850172557213e-01,-9.954806970553908840e-02,2.081035426852035908e-01
-9.761872983730826014e-01,-2.128258317981571723e-01,-7.151960621611370694e-01
1.591709186214045335e-01,-1.503728213220346666e-01,-9.735397295680280338e-01
-9.574688764862886448e-01,2.170576352072322024e-01,-3.811578441809051476e-01
-2.786181445427196035e-01,-2.265978368530355835e-01,-9.392181072869920655e-01
1.660553819958154875e-02,-2.196948602078653279e-01,-9.240583601753367127e-01
-7.053915817319025283e-01,-2.127269408134591089e-01,-9.760596920778543684e-01
1.645563342058387057e-01,1.928073396500380454e-01,-9.354335044597409388e-01
-9.996672067417624596e-01,1.695217145408491888e-01,-5.645692930762163941e-01
-9.648777450023463542e-01,-2.171217331596589917e-01,-5.471242615473559390e-01
-4.256794714271339153e-01,1.490004243251741300e-01,-9.999690765972805151e-01
-9.323758809912127132e-01,2.235182701960800600e-01,-1.219074366106606133e-01
-4.934246361457806929e-01,1.550525240116020775e-01,-9.999422984748882470e-01
-1.494668897075902558e-01,-1.627990349919404833e-01,-9.892977220673099259e-01
-9.979240277939706028e-01,-1.885189028107097098e-01,-7.206799674090264007e-01
-2.154791225171568403e-01,2.155257939680685908e-01,-9.493852834073239766e-01
-9.753711235764578324e-01,-1.739849087743383649e-01,-3.944966268308602864e-02
-9.414123696569819399e-01,2.207352691441011316e-01,-1.933693101948491533e-01
-9.884771947572198458e-01,-2.049796352872613747e-01,-7.922088451330990821e-01
1.461275126948000658e-01,-1.870477472133720287e-01,-9.443104288703803029e-01
-9.765523062995709047e-01,1.959838127079025494e-01,-3.262153715637319262e-01
-9.665805208433074780e-01,1.245864500810660580e-01,3.009945058150713670e-01
-9.990674467053533014e-01,1.826710528860240323e-01,-6.881850226767566303e-01
-4.940549769686801707e-01,1.725817528167619130e-01,-9.977551444287141580e-01
-9.503773725144407658e-01,-2.181058015712095122e-01,-2.789623317192599927e-01
-8.825535018595057624e-01,1.934515749950789232e-01,-9.997410547370054745e-01
-9.552651007651997705e-01,-2.241542047602074206e-01,-5.646057645048299101e-01
-9.931842596754389962e-01,1.086506091870980129e-01,1.768139411482363421e-01
-3.101750004104609770e-01,1.778301551170600181e-01,-9.888480586724662791e-01
-9.992713028266412278e-01,1.944668408303691365e-01,-8.722419256952371747e-01
-9.956158849236219632e-01,9.418970331833986798e-02,2.070286597227084524e-01
-6.134260911859417131e-01,-2.170274517518890889e-01,-9.673264601354345515e-01
-9.988800394321041276e-01,1.554854170089576826e-01,-3.523708808177057339e-01
-9.878099984909722853e-01,-1.421621616930515142e-01,5.377196952280538511e-02
7.150300281678045877e-02,9.512229061776777961e-02,-9.998052310195261194e-01
-6.034746776075192720e-01,2.120511137543856783e-01,-9.735575140002821204e-01
2.071425289459294383e-01,1.530808793261815293e-01,-9.651008810866743559e-01
-9.522275442564070991e-01,-1.598030863240550437e-01,2.470095776648326691e-01
-9.984106814161270993e-01,-1.775953911788867856e-01,-5.870373066650403926e-01
-4.112347097134715357e-01,-1.693097739949021019e-01,-9.966305835817134140e-01
-1.112770389674091476e-01,-1.501535304582151120e-01,-9.932101359991724054e-01
-9.857284506934352875e-01,-2.081075007076724770e-01,-9.179598537815352177e-01
1.350250230349179237e-01,-1.883535427430107489e-01,-9.446002610506581965e-01
-6.283309409795615474e-01,1.760273271301597831e-01,-9.994880587606546074e-01
3.900262336917692529e-02,-1.836836305919161694e-01,-9.605400834308656099e-01
-5.615854105338002888e-02,2.034235359354248374e-01,-9.504083765687103558e-01
-9.501546771085530585e-01,-2.153685716828904750e-01,-2.240040456806507985e-01
-9.835885924096501309e-01,2.092299937709967139e-01,-8.130234036787226115e-01
-8.092653485437084626e-02,2.008365325745435914e-01,-9.552679344460611732e-01
1.240733978026087314e-02,-1.150627475446346359e-01,-9.985914341407174932e-01
-9.971866539284930386e-01,-1.593506792646771641e-01,-3.180144009136633976e-01
-9.920203323736447309e-01,1.132670344945978513e-01,1.700205922178814610e-01
-7.328056247095440234e-01,1.952109244227662188e-01,-9.948354155354541817e-01
-9.374479564210562721e-01,1.687052508050355115e-01,2.723608062951381470e-01
2.863621663480993007e-01,1.547955272048151532e-01,-9.465307282111954379e-01
-9.680378259229246440e-01,1.426291030958530826e-01,2.368296039478212656e-01
-7.830454535618374123e-01,-1.905912067329881276e-01,-9.986585631739715030e-01
2.021584855735305553e-01,-1.364296047282849145e-01,-9.773636940127663486e-01
-9.935872595194799040e-01,1.783598483904320631e-01,-4.325402847331436540e-01
-9.752381491631552102e-01,1.887639864069883266e-01,-2.015062023830155313e-01
-9.989532242396585993e-01,9.576951850641179931e-02,1.178182979509563300e-01
-7.395901898023757859e-01,1.998053032443809496e-01,-9.916711604239653033e-01
-9.416988944271640349e-01,2.292781738478637532e-01,-4.024195332465314578e-01
-9.791732037954160583e-01,-1.293867360267692002e-01,2.208662568592723030e-01
-9.782138653157069763e-01,1.841842873878187792e-01,-1.916400290054004474e-01
-9.523320726575620343e-01,-1.792626206357853524e-01,1.428485053891574985e-01
-9.633098930507857371e-01,-1.836486569815506398e-01,1.094269000335490460e-02
-8.465185918772224483e-01,1.883448806891543370e-01,-9.999986092220526368e-01
-5.643208480397052806e-01,-1.976574718443347978e-01,-9.866013712188508311e-01
9.011302237680895999e-02,9.375272166611470226e-02,-9.996847106427706464e-01
-9.142968881716647678e-01,-2.055725781576224209e-01,-9.905706840992745121e-01
-9.998228905330601712e-01,1.865872967377371072e-01,-8.557811561179075044e-01
-9.617785971838630488e-01,-1.362507254091159803e-01,2.878325978469933322e-01
-9.696481705235427961e-01,1.995003686692300437e-01,-2.626065986113442774e-01
-1.091425719842098463e-01,1.878854104638145728e-01,-9.696531638789891439e-01
-5.174239416965547012e-01,-2.226730209406146965e-01,-9.559995101199773027e-01
-7.718604857549266063e-01,1.859633816669541417e-01,-9.996710259407888266e-01
-5.004866963079153130e-01,2.135799259007675754e-01,-9.674716484982529563e-01
-9.990202667693982574e-01,2.001458176121402310e-01,-9.711984908808489747e-01
-2.106502860504169128e-01,-1.370602230139383870e-01,-9.994544148135067196e-01
-4.141702297395989385e-01,1.681282444960321421e-01,-9.971022174504994284e-01
-5.647240855551007854e-01,-2.203502870031661676e-01,-9.610024320178117696e-01
-9.459047205837456396e-01,2.260017795705842047e-01,-3.890110365878547416e-01
-9.563170861029410830e-01,2.181523183677713806e-01,-3.855048725534165888e-01
-9.960799449545730821e-01,1.944583025746147165e-01,-7.565687209525859824e-01
-1.418759008431251800e-01,-1.818234258111578461e-01,-9.768201928220068275e-01
-9.850710929346268019e-01,1.880742435878512975e-01,-3.698550735192051020e-01
-9.777862732782929278e-01,-2.127819660151207826e-01,-8.538865336096795877e-01
-9.810733781026943490e-01,1.091211875034110435e-01,2.818240725492353604e-01
-9.758589506729536955e-01,-1.747415606625916107e-01,-5.323068888420878775e-02
-7.845560273351276370e-01,1.933204679850861751e-01,-9.975402194477739348e-01
-9.991444844611065967e-01,1.890948006441384166e-01,-7.832866471904543770e-01
-5.003154285044306704e-01,-1.585268332071942954e-01,-9.999985494353924587e-01
1.501399060438179944e-01,-1.564335435424638598e-01,-9.703289310418576896e-01
-9.364416093699965415e-01,2.032606423086611436e-01,7.746029615150140657e-02
-9.602801540393284263e-01,-1.724261060655436495e-01,1.289092105397047217e-01
-9.856063932816456763e-01,1.144718876322827761e-01,2.331744606689420962e-01
-9.495779621291269290e-01,1.673714907269348018e-01,2.268136371250202288e-01
-9.478038626604914363e-01,2.055836522983189862e-01,-5.308897782898347462e-02
-3.331007737876261476e-01,2.249924763442252562e-01,-9.445061159068993684e-01
-9.760440227963703697e-01,-1.730509175255193766e-01,-3.936535199409219032e-02
-6.106472925857434619e-01,1.626283711055118708e-01,-9.995979789179487707e-01
-9.857406277221956170e-01,-1.447270057676379729e-01,6.477408786061644719e-02
-9.980325112138470622e-01,-1.935205392903175392e-01,-8.057779047628175206e-01
-9.874404187567388247e-01,-2.059079302975018733e-01,-7.934009289702905754e-01
-8.288817486472007667e-01,-2.091903623462690875e-01,-9.839363589626644035e-01
-3.827832616261179766e-01,-2.047026517648298238e-01,-9.714781358226095564e-01
-6.632995176594583819e-01,2.113260770608056394e-01,-9.766079609209961099e-01
2.056897682468479260e-01,-1.385340832764000440e-01,-9.755756803370161379e-01
-9.893779193693096330e-01,-1.894202823244545142e-01,-4.862443140685144272e-01
2.983091602187313285e-01,1.203101674278697075e-01,-9.703721916085288335e-01
-6.430257704656356932e-01,-2.085818613492784745e-01,-9.791993027098939706e-01
-9.845293098811156440e-01,-2.011324846004652889e-01,-5.862767436234072038e-01
-9.988740028947158400e-01,1.942680707800643614e-01,-8.514154567661905704e-01
-4.143821202594133446e-01,2.165488771905357268e-01,-9.597906267884677156e-01
-9.739194108228720337e-01,-2.142615661462653476e-01,-7.068255786498347515e-01
-9.511406673872042639e-01,1.596465010383811833e-01,2.525298575244245836e-01
1.631505199537623962e-01,1.045148694890229990e-01,-9.953238239457546932e-01
-9.381021048119947414e-01,2.105873762168257723e-01,-1.098444391401343090e-02
-9.994974963277408753e-01,-1.994897508286138654e-01,-9.709167711359769637e-01
-9.632886512640440602e-01,-1.358288586133191700e-01,2.834462238363408826e-01
-9.600461792014752804e-01,1.564133598075103659e-01,2.217166848713636451e-01
2.040354394367431823e-01,1.123206763575668177e-01,-9.896303359127007759e-01
7.299610868012273990e-02,1.496443436214367484e-01,-9.823913461713882356e-01
-7.278679843836493024e-01,-2.115179380628280370e-01,-9.783428930581075100e-01
-7.899983767715832439e-01,1.879043524517114427e-01,-9.995530517402945181e-01
2.171509340745467753e-01,-1.572002313420185482e-01,-9.601946016442867160e-01
-9.644164417013700863e-01,2.163034054406536288e-01,-5.087724280019817469e-01
5.502969220189668498e-02,-1.369970950032327606e-01,-9.901115368155788410e-01
-7.024591750856248318e-01,-2.142427262709584168e-01,-9.738375009756802259e-01
-9.748145280590022610e-01,-2.064437802670953115e-01,-4.849239204767124001e-01
-2.770576001888351847e-01,-1.454740472911452143e-01,-9.992908274243323952e-01
-9.916277234356256631e-01,1.866753725742518188e-01,-4.991375772685233692e-01
-8.789971893510164502e-01,1.970092099549374254e-01,-9.983176024233751944e-01
-9.493705625460221453e-01,1.685692556475997250e-01,2.222222026391689198e-01
3.646302343958129910e-02,1.848238957123304882e-01,-9.597725812889082997e-01
1.859788640548336591e-01,1.905914654192619739e-01,-9.341390325737300993e-01
-9.982574143455503757e-01,-1.880397813871633739e-01,-7.268149638883794061e-01
-4.369738558004679918e-01,-2.167825714786325575e-01,-9.605935018247835355e-01
-9.965944539551793158e-01,-2.017564690461119969e-01,-9.458125576759885966e-01
-9.416550989463956522e-01,1.752804759916719579e-01,2.286663870995711001e-01
-1.598424880690195726e-01,1.804354555991336539e-01,-9.790082331214160494e-01
2.328727577524616343e-01,1.078157891424149639e-01,-9.886843500689899145e-01
-4.442661137032710705e-01,2.247242226528554099e-01,-9.501901624810086266e-01
-9.939120713243391192e-01,-2.003753768095926091e-01,-9.993726322263993822e-01
7.546865692011595073e-02,-1.900469588043868230e-01,-9.505856886265268146e-01
-9.457249812905343944e-01,1.759586892296987060e-01,2.044454232838706087e-01
-9.902880509414024868e-01,1.996773902964756875e-01,-6.991382153857608195e-01
-9.996319270937649160e-01,-1.923068769475785311e-01,-8.584335097364693690e-01
1.772527399543855076e-02,-1.714549986331047604e-01,-9.725928136460035844e-01
-9.998855521179439432e-01,1.778626133689109601e-01,-6.896997575809333814e-01
-9.879995198705819881e-01,2.069042935427836127e-01,-8.687827007617945352e-01
-9.823590638122360330e-01,-1.285970111873123711e-01,1.985651560608399091e-01
-9.892270589780465251e-01,-1.923661702242137617e-01,-5.310616736244229141e-01
-6.944586867417379406e-02,-2.054587663017913846e-01,-9.494071347905275182e-01
-3.518999208829673986e-01,2.203260628751222416e-01,-9.517616108793642837e-01
-9.630587509557810844e-01,-1.989507471351134038e-01,-1.562878113059806839e-01
-7.719054933817302011e-01,1.861385163945783461e-01,-9.996410259143705401e-01
-9.596685552769907979e-01,-2.118557311565538726e-01,-3.096121441117138939e-01
-9.925096121481519207e-01,-1.480176421576583357e-01,-7.667346064167113173e-02
-9.574245307566463525e-01,-1.638965503450328098e-01,2.002383432839680566e-01
-9.992236859619612055e-01,-1.734424711035581490e-01,-5.779699456284365100e-01
2.079837199845826490e-01,1.373088922987817373e-01,-9.760512534941732099e-01
-9.643949012208992144e-01,-2.116388480662614313e-01,-3.898155660358959551e-01
-8.502727338564730619e-02,1.692864374885836298e-01,-9.818301365322441576e-01
-2.060885600164350517e-01,1.242605176048257043e-01,-9.999459431610119298e-01
-9.684971688244962129e-01,-1.800970516076859651e-01,-1.325920866771967965e-02
-9.655419735571921791e-01,1.646868664392906467e-01,1.378613553439878014e-01
6.836433339898606576e-02,1.122863638552595855e-01,-9.975095092111092576e-01
-9.999998584992281225e-01,-1.919524864836716915e-01,-8.955588509533094488e-01
-9.873513610074406976e-01,-1.923018719453096770e-01,-4.857183882730848890e-01
-9.861460334724883037e-01,2.028528327692613598e-01,-6.659186967979975336e-01
-9.999915908052211533e-01,1.348443501405476308e-01,-2.627396306234133228e-01
-9.769085917310529332e-01,-1.997583699325622408e-01,-9.994959264046978653e-01
-5.114986887170516194e-01,1.765156513184771292e-01,-9.969042640890060092e-01
2.048174961253224069e-02,1.755367791354274232e-01,-9.691969131257353043e-01
-9.892291293309459776e-01,-1.961383966492034059e-01,-5.989795879935477796e-01
-9.971270669475731374e-01,-1.364698806787458807e-01,-9.741911740178066381e-02
3.052624660748264329e-01,-1.158703361222760408e-01,-9.712547664573439876e-01
-8.687366671304699306e-01,-2.119920845280593991e-01,-9.790670864321476818e-01
-5.489623051996948000e-01,2.073024031008641188e-01,-9.768009104215443772e-01
-9.155420066651720479e-02,-1.277708751314304836e-01,-9.987897315188756231e-01
-3.693500756710177413e-02,1.382615886430413887e-01,-9.943858236836816689e-01
